%YAML 1.1
%TAG !u! tag:unity3d.com,2011:
--- !u!114 &-9222996288833341873
MonoBehaviour:
  m_ObjectHideFlags: 11
  m_CorrespondingSourceObject: {fileID: 0}
  m_PrefabInstance: {fileID: 0}
  m_PrefabAsset: {fileID: 0}
  m_GameObject: {fileID: 0}
  m_Enabled: 1
  m_EditorHideFlags: 0
  m_Script: {fileID: 11500000, guid: d0353a89b1f911e48b9e16bdc9f2e058, type: 3}
  m_Name: 
  m_EditorClassIdentifier: 
  version: 5
--- !u!114 &-2671734542790608198
MonoBehaviour:
  m_ObjectHideFlags: 11
  m_CorrespondingSourceObject: {fileID: 0}
  m_PrefabInstance: {fileID: 0}
  m_PrefabAsset: {fileID: 0}
  m_GameObject: {fileID: 0}
  m_Enabled: 1
  m_EditorHideFlags: 0
  m_Script: {fileID: 11500000, guid: da692e001514ec24dbc4cca1949ff7e8, type: 3}
  m_Name: 
  m_EditorClassIdentifier: 
  version: 2
--- !u!21 &2100000
Material:
  serializedVersion: 8
  m_ObjectHideFlags: 0
  m_CorrespondingSourceObject: {fileID: 0}
  m_PrefabInstance: {fileID: 0}
  m_PrefabAsset: {fileID: 0}
  m_Name: Road
  m_Shader: {fileID: -6465566751694194690, guid: a220eb9d4cf4d6c4896dc79e640eeed8, type: 3}
  m_ValidKeywords: []
  m_InvalidKeywords: []
  m_LightmapFlags: 4
  m_EnableInstancingVariants: 0
  m_DoubleSidedGI: 0
  m_CustomRenderQueue: -1
  stringTagMap:
    MotionVector: User
  disabledShaderPasses:
  - DistortionVectors
  - MOTIONVECTORS
  - TransparentDepthPrepass
  - TransparentDepthPostpass
  - TransparentBackface
  m_SavedProperties:
    serializedVersion: 3
    m_TexEnvs:
    - Texture2D_1B63306:
        m_Texture: {fileID: 2800000, guid: 0606ae90f6e34a04c80f3365c93d68e9, type: 3}
        m_Scale: {x: 1, y: 1}
        m_Offset: {x: 0, y: 0}
    - Texture2D_24BA32B2:
        m_Texture: {fileID: 2800000, guid: 3de3b3dfa9977d848add785549cffa9b, type: 3}
        m_Scale: {x: 1, y: 1}
        m_Offset: {x: 0, y: 0}
    - Texture2D_5435F89:
        m_Texture: {fileID: 2800000, guid: a96c1e60ead1a7645a6bbd330727ea84, type: 3}
        m_Scale: {x: 1, y: 1}
        m_Offset: {x: 0, y: 0}
    - Texture2D_5D76D33D:
        m_Texture: {fileID: 2800000, guid: 98d15e67581211544922af0916abfe89, type: 3}
        m_Scale: {x: 1, y: 1}
        m_Offset: {x: 0, y: 0}
    - Texture2D_93A66B7F:
        m_Texture: {fileID: 2800000, guid: b11060939efacec43b1535eaa6a08290, type: 3}
        m_Scale: {x: 1, y: 1}
        m_Offset: {x: 0, y: 0}
    - Texture2D_E79C57AF:
        m_Texture: {fileID: 2800000, guid: 53c40de5545abe845882c885f63bd8a2, type: 3}
        m_Scale: {x: 1, y: 1}
        m_Offset: {x: 0, y: 0}
    - _AnisotropyMap:
        m_Texture: {fileID: 0}
        m_Scale: {x: 1, y: 1}
        m_Offset: {x: 0, y: 0}
    - _BaseColorMap:
        m_Texture: {fileID: 2800000, guid: e24b2346e0fd7ce44b08cf532744612e, type: 3}
        m_Scale: {x: 1, y: 1}
        m_Offset: {x: 0, y: 0}
    - _BentNormalMap:
        m_Texture: {fileID: 0}
        m_Scale: {x: 1, y: 1}
        m_Offset: {x: 0, y: 0}
    - _BentNormalMapOS:
        m_Texture: {fileID: 0}
        m_Scale: {x: 1, y: 1}
        m_Offset: {x: 0, y: 0}
    - _CoatMaskMap:
        m_Texture: {fileID: 0}
        m_Scale: {x: 1, y: 1}
        m_Offset: {x: 0, y: 0}
    - _DetailMap:
        m_Texture: {fileID: 0}
        m_Scale: {x: 1, y: 1}
        m_Offset: {x: 0, y: 0}
    - _DistortionVectorMap:
        m_Texture: {fileID: 0}
        m_Scale: {x: 1, y: 1}
        m_Offset: {x: 0, y: 0}
    - _EmissiveColorMap:
        m_Texture: {fileID: 0}
        m_Scale: {x: 1, y: 1}
        m_Offset: {x: 0, y: 0}
    - _HeightMap:
        m_Texture: {fileID: 0}
        m_Scale: {x: 1, y: 1}
        m_Offset: {x: 0, y: 0}
    - _IridescenceMaskMap:
        m_Texture: {fileID: 0}
        m_Scale: {x: 1, y: 1}
        m_Offset: {x: 0, y: 0}
    - _IridescenceThicknessMap:
        m_Texture: {fileID: 0}
        m_Scale: {x: 1, y: 1}
        m_Offset: {x: 0, y: 0}
    - _MainTex:
        m_Texture: {fileID: 2800000, guid: e24b2346e0fd7ce44b08cf532744612e, type: 3}
        m_Scale: {x: 1, y: 1}
        m_Offset: {x: 0, y: 0}
    - _MaskMap:
        m_Texture: {fileID: 0}
        m_Scale: {x: 1, y: 1}
        m_Offset: {x: 0, y: 0}
    - _NormalMap:
        m_Texture: {fileID: 2800000, guid: 452ba279e9b3fc348a47779fe787fd3e, type: 3}
        m_Scale: {x: 1, y: 1}
        m_Offset: {x: 0, y: 0}
    - _NormalMapOS:
        m_Texture: {fileID: 0}
        m_Scale: {x: 1, y: 1}
        m_Offset: {x: 0, y: 0}
    - _SpecularColorMap:
        m_Texture: {fileID: 0}
        m_Scale: {x: 1, y: 1}
        m_Offset: {x: 0, y: 0}
    - _SubsurfaceMaskMap:
        m_Texture: {fileID: 0}
        m_Scale: {x: 1, y: 1}
        m_Offset: {x: 0, y: 0}
    - _TangentMap:
        m_Texture: {fileID: 0}
        m_Scale: {x: 1, y: 1}
        m_Offset: {x: 0, y: 0}
    - _TangentMapOS:
        m_Texture: {fileID: 0}
        m_Scale: {x: 1, y: 1}
        m_Offset: {x: 0, y: 0}
    - _ThicknessMap:
        m_Texture: {fileID: 0}
        m_Scale: {x: 1, y: 1}
        m_Offset: {x: 0, y: 0}
    - _TransmittanceColorMap:
        m_Texture: {fileID: 0}
        m_Scale: {x: 1, y: 1}
        m_Offset: {x: 0, y: 0}
    m_Ints: []
    m_Floats:
    - Vector1_1BAA984C: 26.27
    - Vector1_24B8AC3D: 0.26
    - Vector1_2AE884AF: 0.7
    - Vector1_3168B130: 0.68
    - Vector1_52AEA543: 380.01
    - Vector1_5D361EB4: 509.3
    - Vector1_64252772: 0.803
    - Vector1_A7BCAC95: 12
    - Vector1_C0F8993C: 700
    - Vector1_C9C81CCF: 0.1
    - Vector1_D25AFB17: 800
    - Vector1_F0C7B35B: 3.3
    - Vector1_F8F0001F: 5
    - Vector1_FF961B3A: 0.58
    - _AORemapMax: 1
    - _AORemapMin: 0
    - _ATDistance: 1
    - _AddPrecomputedVelocity: 0
    - _AlbedoAffectEmissive: 0
    - _AlphaCutoff: 0.5
    - _AlphaCutoffEnable: 0
    - _AlphaCutoffPostpass: 0.5
    - _AlphaCutoffPrepass: 0.5
    - _AlphaCutoffShadow: 0.5
    - _AlphaDstBlend: 0
    - _AlphaSrcBlend: 1
    - _Anisotropy: 0
    - _BlendMode: 0
    - _CoatMask: 0
    - _CullMode: 2
    - _CullModeForward: 2
    - _Cutoff: 0.5
    - _DepthOffsetEnable: 0
    - _DetailAlbedoScale: 1
    - _DetailNormalScale: 1
    - _DetailSmoothnessScale: 1
    - _DiffusionProfile: 0
    - _DiffusionProfileHash: 0
    - _DisplacementLockObjectScale: 1
    - _DisplacementLockTilingScale: 1
    - _DisplacementMode: 0
    - _DistortionBlendMode: 0
    - _DistortionBlurBlendMode: 0
    - _DistortionBlurDstBlend: 1
    - _DistortionBlurRemapMax: 1
    - _DistortionBlurRemapMin: 0
    - _DistortionBlurScale: 1
    - _DistortionBlurSrcBlend: 1
    - _DistortionDepthTest: 1
    - _DistortionDstBlend: 1
    - _DistortionEnable: 0
    - _DistortionScale: 1
    - _DistortionSrcBlend: 1
    - _DistortionVectorBias: -1
    - _DistortionVectorScale: 2
    - _DoubleSidedEnable: 0
    - _DoubleSidedNormalMode: 1
    - _DstBlend: 0
    - _EmissiveColorMode: 1
    - _EmissiveExposureWeight: 1
    - _EmissiveIntensity: 1
    - _EmissiveIntensityUnit: 0
    - _EnableBlendModePreserveSpecularLighting: 1
    - _EnableFogOnTransparent: 1
    - _EnableGeometricSpecularAA: 0
    - _EnergyConservingSpecularColor: 1
    - _HeightAmplitude: 0.02
    - _HeightCenter: 0.5
    - _HeightMapParametrization: 0
    - _HeightMax: 1
    - _HeightMin: -1
    - _HeightOffset: 0
    - _HeightPoMAmplitude: 2
    - _HeightTessAmplitude: 2
    - _HeightTessCenter: 0.5
    - _InvTilingScale: 8.333334
    - _Ior: 1.5
    - _IridescenceMask: 1
    - _IridescenceThickness: 1
    - _LinkDetailsWithBase: 1
    - _MaterialID: 1
    - _Metallic: 0
    - _NormalMapSpace: 0
    - _NormalScale: 1.07
    - _PPDLodThreshold: 5
    - _PPDMaxSamples: 15
    - _PPDMinSamples: 5
    - _PPDPrimitiveLength: 1
    - _PPDPrimitiveWidth: 1
    - _ReceivesSSR: 1
    - _RefractionModel: 0
    - _RenderQueueType: 1
    - _RequireSplitLighting: 0
    - _SSRefractionProjectionModel: 0
    - _Smoothness: 0
    - _SmoothnessRemapMax: 1
    - _SmoothnessRemapMin: 0
    - _SpecularAAScreenSpaceVariance: 0.1
    - _SpecularAAThreshold: 0.2
    - _SpecularOcclusionMode: 1
    - _SrcBlend: 1
    - _StencilRef: 0
    - _StencilRefDepth: 8
    - _StencilRefDistortionVec: 4
    - _StencilRefGBuffer: 10
    - _StencilRefMV: 40
    - _StencilWriteMask: 6
    - _StencilWriteMaskDepth: 8
    - _StencilWriteMaskDistortionVec: 4
    - _StencilWriteMaskGBuffer: 14
    - _StencilWriteMaskMV: 40
    - _SubsurfaceMask: 1
    - _SupportDecals: 1
    - _SurfaceType: 0
    - _TexWorldScale: 0.12
    - _TexWorldScaleEmissive: 1
    - _Thickness: 1
    - _TransmissionEnable: 1
    - _TransparentBackfaceEnable: 0
    - _TransparentCullMode: 2
    - _TransparentDepthPostpassEnable: 0
    - _TransparentDepthPrepassEnable: 0
    - _TransparentSortPriority: 0
    - _TransparentWritingMotionVec: 0
    - _TransparentZWrite: 0
    - _UVBase: 5
    - _UVDetail: 0
    - _UVEmissive: 0
    - _UseEmissiveIntensity: 0
    - _UseShadowThreshold: 0
    - _ZTestDepthEqualForOpaque: 3
    - _ZTestGBuffer: 4
    - _ZTestModeDistortion: 4
    - _ZTestTransparent: 4
    - _ZWrite: 1
    m_Colors:
    - Color_C9309A8F: {r: 0.7169812, g: 0.7169812, b: 0.7169812, a: 0}
    - _BaseColor: {r: 1, g: 1, b: 1, a: 1}
    - _BaseColorMap_MipInfo: {r: 0, g: 0, b: 0, a: 0}
    - _Color: {r: 1, g: 1, b: 1, a: 1}
    - _DiffusionProfileAsset: {r: 0, g: 0, b: 0, a: 0}
    - _DoubleSidedConstants: {r: 1, g: 1, b: -1, a: 0}
    - _EmissionColor: {r: 1, g: 1, b: 1, a: 1}
    - _EmissiveColor: {r: 0, g: 0, b: 0, a: 1}
    - _EmissiveColorLDR: {r: 0, g: 0, b: 0, a: 1}
    - _InvPrimScale: {r: 1, g: 1, b: 0, a: 0}
    - _IridescenceThicknessRemap: {r: 0, g: 1, b: 0, a: 0}
    - _SpecularColor: {r: 1, g: 1, b: 1, a: 1}
    - _ThicknessRemap: {r: 0, g: 1, b: 0, a: 0}
    - _TransmittanceColor: {r: 1, g: 1, b: 1, a: 1}
    - _UVDetailsMappingMask: {r: 1, g: 0, b: 0, a: 0}
    - _UVMappingMask: {r: 0, g: 0, b: 0, a: 0}
    - _UVMappingMaskEmissive: {r: 1, g: 0, b: 0, a: 0}
  m_BuildTextureStacks: []
