%YAML 1.1
%TAG !u! tag:unity3d.com,2011:
--- !u!1 &872668285139836129
GameObject:
  m_ObjectHideFlags: 0
  m_CorrespondingSourceObject: {fileID: 0}
  m_PrefabInstance: {fileID: 0}
  m_PrefabAsset: {fileID: 0}
  serializedVersion: 6
  m_Component:
  - component: {fileID: 871055062404142239}
  - component: {fileID: 895772311792124919}
  - component: {fileID: 886594111669965791}
  m_Layer: 0
  m_Name: Garden-02
  m_TagString: Untagged
  m_Icon: {fileID: 0}
  m_NavMeshLayer: 0
  m_StaticEditorFlags: 4
  m_IsActive: 1
--- !u!4 &871055062404142239
Transform:
  m_ObjectHideFlags: 0
  m_CorrespondingSourceObject: {fileID: 0}
  m_PrefabInstance: {fileID: 0}
  m_PrefabAsset: {fileID: 0}
  m_GameObject: {fileID: 872668285139836129}
  m_LocalRotation: {x: -0, y: -0, z: -0, w: 1}
  m_LocalPosition: {x: -14.61, y: 0, z: -7.65}
  m_LocalScale: {x: 1, y: 1, z: 1}
  m_Children:
  - {fileID: 867190442489705709}
  m_Father: {fileID: 1515655578041963582}
  m_RootOrder: 4
  m_LocalEulerAnglesHint: {x: 0, y: 0, z: 0}
--- !u!33 &895772311792124919
MeshFilter:
  m_ObjectHideFlags: 0
  m_CorrespondingSourceObject: {fileID: 0}
  m_PrefabInstance: {fileID: 0}
  m_PrefabAsset: {fileID: 0}
  m_GameObject: {fileID: 872668285139836129}
  m_Mesh: {fileID: 4300000, guid: d537a5bfd5180e5468e39fabd587f396, type: 3}
--- !u!23 &886594111669965791
MeshRenderer:
  m_ObjectHideFlags: 0
  m_CorrespondingSourceObject: {fileID: 0}
  m_PrefabInstance: {fileID: 0}
  m_PrefabAsset: {fileID: 0}
  m_GameObject: {fileID: 872668285139836129}
  m_Enabled: 1
  m_CastShadows: 1
  m_ReceiveShadows: 1
  m_DynamicOccludee: 1
  m_MotionVectors: 1
  m_LightProbeUsage: 1
  m_ReflectionProbeUsage: 1
  m_RayTracingMode: 2
  m_RenderingLayerMask: 1
  m_RendererPriority: 0
  m_Materials:
  - {fileID: 2100000, guid: 59aa769bd1562c543b982eedfb107b96, type: 2}
  - {fileID: 2100000, guid: 02e4ddcf3844c6b4dad2b8d7d998265e, type: 2}
  m_StaticBatchInfo:
    firstSubMesh: 0
    subMeshCount: 0
  m_StaticBatchRoot: {fileID: 0}
  m_ProbeAnchor: {fileID: 0}
  m_LightProbeVolumeOverride: {fileID: 0}
  m_ScaleInLightmap: 1
  m_ReceiveGI: 1
  m_PreserveUVs: 0
  m_IgnoreNormalsForChartDetection: 0
  m_ImportantGI: 0
  m_StitchLightmapSeams: 0
  m_SelectedEditorRenderState: 3
  m_MinimumChartSize: 4
  m_AutoUVMaxDistance: 0.5
  m_AutoUVMaxAngle: 89
  m_LightmapParameters: {fileID: 0}
  m_SortingLayerID: 0
  m_SortingLayer: 0
  m_SortingOrder: 0
--- !u!1 &873608137952959997
GameObject:
  m_ObjectHideFlags: 0
  m_CorrespondingSourceObject: {fileID: 0}
  m_PrefabInstance: {fileID: 0}
  m_PrefabAsset: {fileID: 0}
  serializedVersion: 6
  m_Component:
  - component: {fileID: 867190442489705709}
  - component: {fileID: 895812696957749035}
  - component: {fileID: 936132989728325327}
  m_Layer: 0
  m_Name: Garden-02-Collider
  m_TagString: Untagged
  m_Icon: {fileID: 0}
  m_NavMeshLayer: 0
  m_StaticEditorFlags: 4
  m_IsActive: 1
--- !u!4 &867190442489705709
Transform:
  m_ObjectHideFlags: 0
  m_CorrespondingSourceObject: {fileID: 0}
  m_PrefabInstance: {fileID: 0}
  m_PrefabAsset: {fileID: 0}
  m_GameObject: {fileID: 873608137952959997}
  m_LocalRotation: {x: 0, y: -0, z: -0, w: 1}
  m_LocalPosition: {x: -0, y: 0, z: 0}
  m_LocalScale: {x: 1, y: 1, z: 1}
  m_Children: []
  m_Father: {fileID: 871055062404142239}
  m_RootOrder: 0
  m_LocalEulerAnglesHint: {x: 0, y: 0, z: 0}
--- !u!33 &895812696957749035
MeshFilter:
  m_ObjectHideFlags: 0
  m_CorrespondingSourceObject: {fileID: 0}
  m_PrefabInstance: {fileID: 0}
  m_PrefabAsset: {fileID: 0}
  m_GameObject: {fileID: 873608137952959997}
  m_Mesh: {fileID: 4300002, guid: d537a5bfd5180e5468e39fabd587f396, type: 3}
--- !u!64 &936132989728325327
MeshCollider:
  m_ObjectHideFlags: 0
  m_CorrespondingSourceObject: {fileID: 0}
  m_PrefabInstance: {fileID: 0}
  m_PrefabAsset: {fileID: 0}
  m_GameObject: {fileID: 873608137952959997}
  m_Material: {fileID: 0}
  m_IsTrigger: 0
  m_Enabled: 1
  serializedVersion: 4
  m_Convex: 0
  m_CookingOptions: 30
  m_Mesh: {fileID: 4300002, guid: d537a5bfd5180e5468e39fabd587f396, type: 3}
--- !u!1 &1521455454418251138
GameObject:
  m_ObjectHideFlags: 0
  m_CorrespondingSourceObject: {fileID: 0}
  m_PrefabInstance: {fileID: 0}
  m_PrefabAsset: {fileID: 0}
  serializedVersion: 6
  m_Component:
  - component: {fileID: 1515926838854859552}
  - component: {fileID: 1544688537895247556}
  - component: {fileID: 1584410929401854136}
  m_Layer: 0
  m_Name: Base-50m-02-Collider
  m_TagString: Untagged
  m_Icon: {fileID: 0}
  m_NavMeshLayer: 0
  m_StaticEditorFlags: 4
  m_IsActive: 1
--- !u!4 &1515926838854859552
Transform:
  m_ObjectHideFlags: 0
  m_CorrespondingSourceObject: {fileID: 0}
  m_PrefabInstance: {fileID: 0}
  m_PrefabAsset: {fileID: 0}
  m_GameObject: {fileID: 1521455454418251138}
  m_LocalRotation: {x: 0, y: -0, z: -0, w: 1}
  m_LocalPosition: {x: -0, y: 0, z: 0}
  m_LocalScale: {x: 1, y: 1, z: 1}
  m_Children: []
  m_Father: {fileID: 1515655578041963582}
  m_RootOrder: 0
  m_LocalEulerAnglesHint: {x: 0, y: 0, z: 0}
--- !u!33 &1544688537895247556
MeshFilter:
  m_ObjectHideFlags: 0
  m_CorrespondingSourceObject: {fileID: 0}
  m_PrefabInstance: {fileID: 0}
  m_PrefabAsset: {fileID: 0}
  m_GameObject: {fileID: 1521455454418251138}
  m_Mesh: {fileID: 4300002, guid: 2cb556258b808f247892a9f5b1225837, type: 3}
--- !u!64 &1584410929401854136
MeshCollider:
  m_ObjectHideFlags: 0
  m_CorrespondingSourceObject: {fileID: 0}
  m_PrefabInstance: {fileID: 0}
  m_PrefabAsset: {fileID: 0}
  m_GameObject: {fileID: 1521455454418251138}
  m_Material: {fileID: 0}
  m_IsTrigger: 0
  m_Enabled: 1
  serializedVersion: 4
  m_Convex: 0
  m_CookingOptions: 30
  m_Mesh: {fileID: 4300002, guid: 2cb556258b808f247892a9f5b1225837, type: 3}
--- !u!1 &1521609271923186692
GameObject:
  m_ObjectHideFlags: 0
  m_CorrespondingSourceObject: {fileID: 0}
  m_PrefabInstance: {fileID: 0}
  m_PrefabAsset: {fileID: 0}
  serializedVersion: 6
  m_Component:
  - component: {fileID: 1515655578041963582}
  - component: {fileID: 1544475117127675610}
  - component: {fileID: 1534482107029562152}
  m_Layer: 0
  m_Name: BC-071
  m_TagString: Untagged
  m_Icon: {fileID: 0}
  m_NavMeshLayer: 0
  m_StaticEditorFlags: 4
  m_IsActive: 1
--- !u!4 &1515655578041963582
Transform:
  m_ObjectHideFlags: 0
  m_CorrespondingSourceObject: {fileID: 0}
  m_PrefabInstance: {fileID: 0}
  m_PrefabAsset: {fileID: 0}
  m_GameObject: {fileID: 1521609271923186692}
  m_LocalRotation: {x: 0, y: -0, z: -0, w: 1}
  m_LocalPosition: {x: -0, y: 0, z: 0}
  m_LocalScale: {x: 1, y: 1, z: 1}
  m_Children:
  - {fileID: 1515926838854859552}
  - {fileID: 8585564128272669727}
  - {fileID: 8099031962614874818}
  - {fileID: 7539025563334724118}
  - {fileID: 871055062404142239}
  - {fileID: 4501046085570396078}
  - {fileID: 6288888649598543121}
  - {fileID: 1020191570627063063}
  - {fileID: 4105840783461206837}
  - {fileID: 5065792502273970077}
  - {fileID: 6182431708833627115}
  - {fileID: 6918411814132396671}
  m_Father: {fileID: 0}
  m_RootOrder: 0
  m_LocalEulerAnglesHint: {x: 0, y: 0, z: 0}
--- !u!33 &1544475117127675610
MeshFilter:
  m_ObjectHideFlags: 0
  m_CorrespondingSourceObject: {fileID: 0}
  m_PrefabInstance: {fileID: 0}
  m_PrefabAsset: {fileID: 0}
  m_GameObject: {fileID: 1521609271923186692}
  m_Mesh: {fileID: 4300000, guid: 2cb556258b808f247892a9f5b1225837, type: 3}
--- !u!23 &1534482107029562152
MeshRenderer:
  m_ObjectHideFlags: 0
  m_CorrespondingSourceObject: {fileID: 0}
  m_PrefabInstance: {fileID: 0}
  m_PrefabAsset: {fileID: 0}
  m_GameObject: {fileID: 1521609271923186692}
  m_Enabled: 1
  m_CastShadows: 1
  m_ReceiveShadows: 1
  m_DynamicOccludee: 1
  m_MotionVectors: 1
  m_LightProbeUsage: 1
  m_ReflectionProbeUsage: 1
  m_RayTracingMode: 2
  m_RenderingLayerMask: 1
  m_RendererPriority: 0
  m_Materials:
  - {fileID: 2100000, guid: 59aa769bd1562c543b982eedfb107b96, type: 2}
  - {fileID: 2100000, guid: 9936a8d66f306b7488a2e8cf3d4088a0, type: 2}
  m_StaticBatchInfo:
    firstSubMesh: 0
    subMeshCount: 0
  m_StaticBatchRoot: {fileID: 0}
  m_ProbeAnchor: {fileID: 0}
  m_LightProbeVolumeOverride: {fileID: 0}
  m_ScaleInLightmap: 1
  m_ReceiveGI: 1
  m_PreserveUVs: 0
  m_IgnoreNormalsForChartDetection: 0
  m_ImportantGI: 0
  m_StitchLightmapSeams: 0
  m_SelectedEditorRenderState: 3
  m_MinimumChartSize: 4
  m_AutoUVMaxDistance: 0.5
  m_AutoUVMaxAngle: 89
  m_LightmapParameters: {fileID: 0}
  m_SortingLayerID: 0
  m_SortingLayer: 0
  m_SortingOrder: 0
--- !u!1 &4502510326640555984
GameObject:
  m_ObjectHideFlags: 0
  m_CorrespondingSourceObject: {fileID: 0}
  m_PrefabInstance: {fileID: 0}
  m_PrefabAsset: {fileID: 0}
  serializedVersion: 6
  m_Component:
  - component: {fileID: 4501046085570396078}
  - component: {fileID: 4471540393786370246}
  - component: {fileID: 4480420557539047662}
  m_Layer: 0
  m_Name: Garden-02 (1)
  m_TagString: Untagged
  m_Icon: {fileID: 0}
  m_NavMeshLayer: 0
  m_StaticEditorFlags: 4
  m_IsActive: 1
--- !u!4 &4501046085570396078
Transform:
  m_ObjectHideFlags: 0
  m_CorrespondingSourceObject: {fileID: 0}
  m_PrefabInstance: {fileID: 0}
  m_PrefabAsset: {fileID: 0}
  m_GameObject: {fileID: 4502510326640555984}
  m_LocalRotation: {x: -0, y: -0, z: -0, w: 1}
  m_LocalPosition: {x: 14.65, y: 0, z: -7.65}
  m_LocalScale: {x: 1, y: 1, z: 1}
  m_Children:
  - {fileID: 4497010782655225820}
  m_Father: {fileID: 1515655578041963582}
  m_RootOrder: 5
  m_LocalEulerAnglesHint: {x: 0, y: 0, z: 0}
--- !u!33 &4471540393786370246
MeshFilter:
  m_ObjectHideFlags: 0
  m_CorrespondingSourceObject: {fileID: 0}
  m_PrefabInstance: {fileID: 0}
  m_PrefabAsset: {fileID: 0}
  m_GameObject: {fileID: 4502510326640555984}
  m_Mesh: {fileID: 4300000, guid: d537a5bfd5180e5468e39fabd587f396, type: 3}
--- !u!23 &4480420557539047662
MeshRenderer:
  m_ObjectHideFlags: 0
  m_CorrespondingSourceObject: {fileID: 0}
  m_PrefabInstance: {fileID: 0}
  m_PrefabAsset: {fileID: 0}
  m_GameObject: {fileID: 4502510326640555984}
  m_Enabled: 1
  m_CastShadows: 1
  m_ReceiveShadows: 1
  m_DynamicOccludee: 1
  m_MotionVectors: 1
  m_LightProbeUsage: 1
  m_ReflectionProbeUsage: 1
  m_RayTracingMode: 2
  m_RenderingLayerMask: 1
  m_RendererPriority: 0
  m_Materials:
  - {fileID: 2100000, guid: 59aa769bd1562c543b982eedfb107b96, type: 2}
  - {fileID: 2100000, guid: 02e4ddcf3844c6b4dad2b8d7d998265e, type: 2}
  m_StaticBatchInfo:
    firstSubMesh: 0
    subMeshCount: 0
  m_StaticBatchRoot: {fileID: 0}
  m_ProbeAnchor: {fileID: 0}
  m_LightProbeVolumeOverride: {fileID: 0}
  m_ScaleInLightmap: 1
  m_ReceiveGI: 1
  m_PreserveUVs: 0
  m_IgnoreNormalsForChartDetection: 0
  m_ImportantGI: 0
  m_StitchLightmapSeams: 0
  m_SelectedEditorRenderState: 3
  m_MinimumChartSize: 4
  m_AutoUVMaxDistance: 0.5
  m_AutoUVMaxAngle: 89
  m_LightmapParameters: {fileID: 0}
  m_SortingLayerID: 0
  m_SortingLayer: 0
  m_SortingOrder: 0
--- !u!1 &4503559627834783436
GameObject:
  m_ObjectHideFlags: 0
  m_CorrespondingSourceObject: {fileID: 0}
  m_PrefabInstance: {fileID: 0}
  m_PrefabAsset: {fileID: 0}
  serializedVersion: 6
  m_Component:
  - component: {fileID: 4497010782655225820}
  - component: {fileID: 4471764922774187034}
  - component: {fileID: 4511966470174250494}
  m_Layer: 0
  m_Name: Garden-02-Collider
  m_TagString: Untagged
  m_Icon: {fileID: 0}
  m_NavMeshLayer: 0
  m_StaticEditorFlags: 4
  m_IsActive: 1
--- !u!4 &4497010782655225820
Transform:
  m_ObjectHideFlags: 0
  m_CorrespondingSourceObject: {fileID: 0}
  m_PrefabInstance: {fileID: 0}
  m_PrefabAsset: {fileID: 0}
  m_GameObject: {fileID: 4503559627834783436}
  m_LocalRotation: {x: 0, y: -0, z: -0, w: 1}
  m_LocalPosition: {x: -0, y: 0, z: 0}
  m_LocalScale: {x: 1, y: 1, z: 1}
  m_Children: []
  m_Father: {fileID: 4501046085570396078}
  m_RootOrder: 0
  m_LocalEulerAnglesHint: {x: 0, y: 0, z: 0}
--- !u!33 &4471764922774187034
MeshFilter:
  m_ObjectHideFlags: 0
  m_CorrespondingSourceObject: {fileID: 0}
  m_PrefabInstance: {fileID: 0}
  m_PrefabAsset: {fileID: 0}
  m_GameObject: {fileID: 4503559627834783436}
  m_Mesh: {fileID: 4300002, guid: d537a5bfd5180e5468e39fabd587f396, type: 3}
--- !u!64 &4511966470174250494
MeshCollider:
  m_ObjectHideFlags: 0
  m_CorrespondingSourceObject: {fileID: 0}
  m_PrefabInstance: {fileID: 0}
  m_PrefabAsset: {fileID: 0}
  m_GameObject: {fileID: 4503559627834783436}
  m_Material: {fileID: 0}
  m_IsTrigger: 0
  m_Enabled: 1
  serializedVersion: 4
  m_Convex: 0
  m_CookingOptions: 30
  m_Mesh: {fileID: 4300002, guid: d537a5bfd5180e5468e39fabd587f396, type: 3}
--- !u!1 &7533292089099624784
GameObject:
  m_ObjectHideFlags: 0
  m_CorrespondingSourceObject: {fileID: 0}
  m_PrefabInstance: {fileID: 0}
  m_PrefabAsset: {fileID: 0}
  serializedVersion: 6
  m_Component:
  - component: {fileID: 7539025563334724118}
  - component: {fileID: 7563268101685238666}
  - component: {fileID: 7555479459289590632}
  - component: {fileID: 7522836374903014080}
  - component: {fileID: 7523825048954314240}
  m_Layer: 0
  m_Name: Trash-01
  m_TagString: Untagged
  m_Icon: {fileID: 0}
  m_NavMeshLayer: 0
  m_StaticEditorFlags: 4
  m_IsActive: 1
--- !u!4 &7539025563334724118
Transform:
  m_ObjectHideFlags: 0
  m_CorrespondingSourceObject: {fileID: 0}
  m_PrefabInstance: {fileID: 0}
  m_PrefabAsset: {fileID: 0}
  m_GameObject: {fileID: 7533292089099624784}
  m_LocalRotation: {x: -0, y: -0.7071068, z: -0, w: 0.7071068}
  m_LocalPosition: {x: -20.36, y: 0, z: -23.48}
  m_LocalScale: {x: 1, y: 1, z: 1}
  m_Children: []
  m_Father: {fileID: 1515655578041963582}
  m_RootOrder: 3
  m_LocalEulerAnglesHint: {x: 0, y: -90, z: 0}
--- !u!33 &7563268101685238666
MeshFilter:
  m_ObjectHideFlags: 0
  m_CorrespondingSourceObject: {fileID: 0}
  m_PrefabInstance: {fileID: 0}
  m_PrefabAsset: {fileID: 0}
  m_GameObject: {fileID: 7533292089099624784}
  m_Mesh: {fileID: 4300000, guid: 361fffd8419100d4ebcf1f0edb9b3a2d, type: 3}
--- !u!23 &7555479459289590632
MeshRenderer:
  m_ObjectHideFlags: 0
  m_CorrespondingSourceObject: {fileID: 0}
  m_PrefabInstance: {fileID: 0}
  m_PrefabAsset: {fileID: 0}
  m_GameObject: {fileID: 7533292089099624784}
  m_Enabled: 1
  m_CastShadows: 1
  m_ReceiveShadows: 1
  m_DynamicOccludee: 1
  m_MotionVectors: 1
  m_LightProbeUsage: 1
  m_ReflectionProbeUsage: 1
  m_RayTracingMode: 2
  m_RenderingLayerMask: 1
  m_RendererPriority: 0
  m_Materials:
  - {fileID: 2100000, guid: 59aa769bd1562c543b982eedfb107b96, type: 2}
  - {fileID: 2100000, guid: 664df3f17139ec24fb30a2a71988616c, type: 2}
  m_StaticBatchInfo:
    firstSubMesh: 0
    subMeshCount: 0
  m_StaticBatchRoot: {fileID: 0}
  m_ProbeAnchor: {fileID: 0}
  m_LightProbeVolumeOverride: {fileID: 0}
  m_ScaleInLightmap: 1
  m_ReceiveGI: 1
  m_PreserveUVs: 0
  m_IgnoreNormalsForChartDetection: 0
  m_ImportantGI: 0
  m_StitchLightmapSeams: 0
  m_SelectedEditorRenderState: 3
  m_MinimumChartSize: 4
  m_AutoUVMaxDistance: 0.5
  m_AutoUVMaxAngle: 89
  m_LightmapParameters: {fileID: 0}
  m_SortingLayerID: 0
  m_SortingLayer: 0
  m_SortingOrder: 0
--- !u!65 &7522836374903014080
BoxCollider:
  m_ObjectHideFlags: 0
  m_CorrespondingSourceObject: {fileID: 0}
  m_PrefabInstance: {fileID: 0}
  m_PrefabAsset: {fileID: 0}
  m_GameObject: {fileID: 7533292089099624784}
  m_Material: {fileID: 0}
  m_IsTrigger: 0
  m_Enabled: 1
  serializedVersion: 2
  m_Size: {x: 3.3840032, y: 0.1708411, z: 0.8748014}
  m_Center: {x: 0.00000023841858, y: 0.08542043, z: 0.026767671}
--- !u!65 &7523825048954314240
BoxCollider:
  m_ObjectHideFlags: 0
  m_CorrespondingSourceObject: {fileID: 0}
  m_PrefabInstance: {fileID: 0}
  m_PrefabAsset: {fileID: 0}
  m_GameObject: {fileID: 7533292089099624784}
  m_Material: {fileID: 0}
  m_IsTrigger: 0
  m_Enabled: 1
  serializedVersion: 2
  m_Size: {x: 3.3840032, y: 1.597413, z: 0.4157482}
  m_Center: {x: 0.00000023841858, y: 0.79870635, z: 0.19942166}
--- !u!1 &8101618520672720040
GameObject:
  m_ObjectHideFlags: 0
  m_CorrespondingSourceObject: {fileID: 0}
  m_PrefabInstance: {fileID: 0}
  m_PrefabAsset: {fileID: 0}
  serializedVersion: 6
  m_Component:
  - component: {fileID: 8099031962614874818}
  - component: {fileID: 8075925481982768110}
  - component: {fileID: 8087938865342082738}
  - component: {fileID: 8107370290729315936}
  m_Layer: 0
  m_Name: Dumpster
  m_TagString: Untagged
  m_Icon: {fileID: 0}
  m_NavMeshLayer: 0
  m_StaticEditorFlags: 4
  m_IsActive: 1
--- !u!4 &8099031962614874818
Transform:
  m_ObjectHideFlags: 0
  m_CorrespondingSourceObject: {fileID: 0}
  m_PrefabInstance: {fileID: 0}
  m_PrefabAsset: {fileID: 0}
  m_GameObject: {fileID: 8101618520672720040}
  m_LocalRotation: {x: -0, y: 0.7071068, z: -0, w: 0.7071068}
  m_LocalPosition: {x: 20.89, y: 0, z: -23.26}
  m_LocalScale: {x: 1, y: 1, z: 1}
  m_Children: []
  m_Father: {fileID: 1515655578041963582}
  m_RootOrder: 2
  m_LocalEulerAnglesHint: {x: 0, y: 90, z: 0}
--- !u!33 &8075925481982768110
MeshFilter:
  m_ObjectHideFlags: 0
  m_CorrespondingSourceObject: {fileID: 0}
  m_PrefabInstance: {fileID: 0}
  m_PrefabAsset: {fileID: 0}
  m_GameObject: {fileID: 8101618520672720040}
  m_Mesh: {fileID: 4300000, guid: 059b3830c92c3d64ea6b5ecca17d87bd, type: 3}
--- !u!23 &8087938865342082738
MeshRenderer:
  m_ObjectHideFlags: 0
  m_CorrespondingSourceObject: {fileID: 0}
  m_PrefabInstance: {fileID: 0}
  m_PrefabAsset: {fileID: 0}
  m_GameObject: {fileID: 8101618520672720040}
  m_Enabled: 1
  m_CastShadows: 1
  m_ReceiveShadows: 1
  m_DynamicOccludee: 1
  m_MotionVectors: 1
  m_LightProbeUsage: 1
  m_ReflectionProbeUsage: 1
  m_RayTracingMode: 2
  m_RenderingLayerMask: 1
  m_RendererPriority: 0
  m_Materials:
  - {fileID: 2100000, guid: 59aa769bd1562c543b982eedfb107b96, type: 2}
  m_StaticBatchInfo:
    firstSubMesh: 0
    subMeshCount: 0
  m_StaticBatchRoot: {fileID: 0}
  m_ProbeAnchor: {fileID: 0}
  m_LightProbeVolumeOverride: {fileID: 0}
  m_ScaleInLightmap: 1
  m_ReceiveGI: 1
  m_PreserveUVs: 0
  m_IgnoreNormalsForChartDetection: 0
  m_ImportantGI: 0
  m_StitchLightmapSeams: 0
  m_SelectedEditorRenderState: 3
  m_MinimumChartSize: 4
  m_AutoUVMaxDistance: 0.5
  m_AutoUVMaxAngle: 89
  m_LightmapParameters: {fileID: 0}
  m_SortingLayerID: 0
  m_SortingLayer: 0
  m_SortingOrder: 0
--- !u!65 &8107370290729315936
BoxCollider:
  m_ObjectHideFlags: 0
  m_CorrespondingSourceObject: {fileID: 0}
  m_PrefabInstance: {fileID: 0}
  m_PrefabAsset: {fileID: 0}
  m_GameObject: {fileID: 8101618520672720040}
  m_Material: {fileID: 0}
  m_IsTrigger: 0
  m_Enabled: 1
  serializedVersion: 2
  m_Size: {x: 3.0135517, y: 2.090882, z: 1.8537614}
  m_Center: {x: -0.0000023245811, y: 1.0451754, z: -0.035577357}
--- !u!64 &8140039782355349042
MeshCollider:
  m_ObjectHideFlags: 0
  m_CorrespondingSourceObject: {fileID: 0}
  m_PrefabInstance: {fileID: 0}
  m_PrefabAsset: {fileID: 0}
  m_GameObject: {fileID: 8585564128272236605}
  m_Material: {fileID: 0}
  m_IsTrigger: 0
  m_Enabled: 1
  serializedVersion: 4
  m_Convex: 0
  m_CookingOptions: 30
  m_Mesh: {fileID: 4300002, guid: 904292f41f94b194d82e73470aae95b8, type: 3}
--- !u!1001 &1019662590152079189
PrefabInstance:
  m_ObjectHideFlags: 0
  serializedVersion: 2
  m_Modification:
    m_TransformParent: {fileID: 1515655578041963582}
    m_Modifications:
    - target: {fileID: 1820733399213554, guid: 67572a653e8e9de4ab89371f3d500c02, type: 3}
      propertyPath: m_Name
      value: ParkLamp
      objectReference: {fileID: 0}
    - target: {fileID: 4190707616455234, guid: 67572a653e8e9de4ab89371f3d500c02, type: 3}
      propertyPath: m_RootOrder
      value: 7
      objectReference: {fileID: 0}
    - target: {fileID: 4190707616455234, guid: 67572a653e8e9de4ab89371f3d500c02, type: 3}
      propertyPath: m_LocalPosition.x
      value: 9.44
      objectReference: {fileID: 0}
    - target: {fileID: 4190707616455234, guid: 67572a653e8e9de4ab89371f3d500c02, type: 3}
      propertyPath: m_LocalPosition.y
      value: 0
      objectReference: {fileID: 0}
    - target: {fileID: 4190707616455234, guid: 67572a653e8e9de4ab89371f3d500c02, type: 3}
      propertyPath: m_LocalPosition.z
      value: -6.53
      objectReference: {fileID: 0}
    - target: {fileID: 4190707616455234, guid: 67572a653e8e9de4ab89371f3d500c02, type: 3}
      propertyPath: m_LocalRotation.w
      value: 1
      objectReference: {fileID: 0}
    - target: {fileID: 4190707616455234, guid: 67572a653e8e9de4ab89371f3d500c02, type: 3}
      propertyPath: m_LocalRotation.x
      value: -0
      objectReference: {fileID: 0}
    - target: {fileID: 4190707616455234, guid: 67572a653e8e9de4ab89371f3d500c02, type: 3}
      propertyPath: m_LocalRotation.y
      value: -0
      objectReference: {fileID: 0}
    - target: {fileID: 4190707616455234, guid: 67572a653e8e9de4ab89371f3d500c02, type: 3}
      propertyPath: m_LocalRotation.z
      value: -0
      objectReference: {fileID: 0}
    - target: {fileID: 4190707616455234, guid: 67572a653e8e9de4ab89371f3d500c02, type: 3}
      propertyPath: m_LocalEulerAnglesHint.x
      value: 0
      objectReference: {fileID: 0}
    - target: {fileID: 4190707616455234, guid: 67572a653e8e9de4ab89371f3d500c02, type: 3}
      propertyPath: m_LocalEulerAnglesHint.y
      value: 0
      objectReference: {fileID: 0}
    - target: {fileID: 4190707616455234, guid: 67572a653e8e9de4ab89371f3d500c02, type: 3}
      propertyPath: m_LocalEulerAnglesHint.z
      value: 0
      objectReference: {fileID: 0}
    m_RemovedComponents: []
  m_SourcePrefab: {fileID: 100100000, guid: 67572a653e8e9de4ab89371f3d500c02, type: 3}
--- !u!4 &1020191570627063063 stripped
Transform:
  m_CorrespondingSourceObject: {fileID: 4190707616455234, guid: 67572a653e8e9de4ab89371f3d500c02,
    type: 3}
  m_PrefabInstance: {fileID: 1019662590152079189}
  m_PrefabAsset: {fileID: 0}
--- !u!1001 &4103908585616068983
PrefabInstance:
  m_ObjectHideFlags: 0
  serializedVersion: 2
  m_Modification:
    m_TransformParent: {fileID: 1515655578041963582}
    m_Modifications:
    - target: {fileID: 1820733399213554, guid: 67572a653e8e9de4ab89371f3d500c02, type: 3}
      propertyPath: m_Name
      value: ParkLamp
      objectReference: {fileID: 0}
    - target: {fileID: 4190707616455234, guid: 67572a653e8e9de4ab89371f3d500c02, type: 3}
      propertyPath: m_RootOrder
      value: 8
      objectReference: {fileID: 0}
    - target: {fileID: 4190707616455234, guid: 67572a653e8e9de4ab89371f3d500c02, type: 3}
      propertyPath: m_LocalPosition.x
      value: 9.44
      objectReference: {fileID: 0}
    - target: {fileID: 4190707616455234, guid: 67572a653e8e9de4ab89371f3d500c02, type: 3}
      propertyPath: m_LocalPosition.y
      value: 0
      objectReference: {fileID: 0}
    - target: {fileID: 4190707616455234, guid: 67572a653e8e9de4ab89371f3d500c02, type: 3}
      propertyPath: m_LocalPosition.z
      value: -10.96
      objectReference: {fileID: 0}
    - target: {fileID: 4190707616455234, guid: 67572a653e8e9de4ab89371f3d500c02, type: 3}
      propertyPath: m_LocalRotation.w
      value: 1
      objectReference: {fileID: 0}
    - target: {fileID: 4190707616455234, guid: 67572a653e8e9de4ab89371f3d500c02, type: 3}
      propertyPath: m_LocalRotation.x
      value: -0
      objectReference: {fileID: 0}
    - target: {fileID: 4190707616455234, guid: 67572a653e8e9de4ab89371f3d500c02, type: 3}
      propertyPath: m_LocalRotation.y
      value: -0
      objectReference: {fileID: 0}
    - target: {fileID: 4190707616455234, guid: 67572a653e8e9de4ab89371f3d500c02, type: 3}
      propertyPath: m_LocalRotation.z
      value: -0
      objectReference: {fileID: 0}
    - target: {fileID: 4190707616455234, guid: 67572a653e8e9de4ab89371f3d500c02, type: 3}
      propertyPath: m_LocalEulerAnglesHint.x
      value: 0
      objectReference: {fileID: 0}
    - target: {fileID: 4190707616455234, guid: 67572a653e8e9de4ab89371f3d500c02, type: 3}
      propertyPath: m_LocalEulerAnglesHint.y
      value: 0
      objectReference: {fileID: 0}
    - target: {fileID: 4190707616455234, guid: 67572a653e8e9de4ab89371f3d500c02, type: 3}
      propertyPath: m_LocalEulerAnglesHint.z
      value: 0
      objectReference: {fileID: 0}
    m_RemovedComponents: []
  m_SourcePrefab: {fileID: 100100000, guid: 67572a653e8e9de4ab89371f3d500c02, type: 3}
--- !u!4 &4105840783461206837 stripped
Transform:
  m_CorrespondingSourceObject: {fileID: 4190707616455234, guid: 67572a653e8e9de4ab89371f3d500c02,
    type: 3}
  m_PrefabInstance: {fileID: 4103908585616068983}
  m_PrefabAsset: {fileID: 0}
--- !u!1001 &5063079650091505119
PrefabInstance:
  m_ObjectHideFlags: 0
  serializedVersion: 2
  m_Modification:
    m_TransformParent: {fileID: 1515655578041963582}
    m_Modifications:
    - target: {fileID: 1820733399213554, guid: 67572a653e8e9de4ab89371f3d500c02, type: 3}
      propertyPath: m_Name
      value: ParkLamp
      objectReference: {fileID: 0}
    - target: {fileID: 4190707616455234, guid: 67572a653e8e9de4ab89371f3d500c02, type: 3}
      propertyPath: m_RootOrder
      value: 9
      objectReference: {fileID: 0}
    - target: {fileID: 4190707616455234, guid: 67572a653e8e9de4ab89371f3d500c02, type: 3}
      propertyPath: m_LocalPosition.x
      value: -9.53
      objectReference: {fileID: 0}
    - target: {fileID: 4190707616455234, guid: 67572a653e8e9de4ab89371f3d500c02, type: 3}
      propertyPath: m_LocalPosition.y
      value: 0
      objectReference: {fileID: 0}
    - target: {fileID: 4190707616455234, guid: 67572a653e8e9de4ab89371f3d500c02, type: 3}
      propertyPath: m_LocalPosition.z
      value: -2.15
      objectReference: {fileID: 0}
    - target: {fileID: 4190707616455234, guid: 67572a653e8e9de4ab89371f3d500c02, type: 3}
      propertyPath: m_LocalRotation.w
      value: 1
      objectReference: {fileID: 0}
    - target: {fileID: 4190707616455234, guid: 67572a653e8e9de4ab89371f3d500c02, type: 3}
      propertyPath: m_LocalRotation.x
      value: -0
      objectReference: {fileID: 0}
    - target: {fileID: 4190707616455234, guid: 67572a653e8e9de4ab89371f3d500c02, type: 3}
      propertyPath: m_LocalRotation.y
      value: -0
      objectReference: {fileID: 0}
    - target: {fileID: 4190707616455234, guid: 67572a653e8e9de4ab89371f3d500c02, type: 3}
      propertyPath: m_LocalRotation.z
      value: -0
      objectReference: {fileID: 0}
    - target: {fileID: 4190707616455234, guid: 67572a653e8e9de4ab89371f3d500c02, type: 3}
      propertyPath: m_LocalEulerAnglesHint.x
      value: 0
      objectReference: {fileID: 0}
    - target: {fileID: 4190707616455234, guid: 67572a653e8e9de4ab89371f3d500c02, type: 3}
      propertyPath: m_LocalEulerAnglesHint.y
      value: 0
      objectReference: {fileID: 0}
    - target: {fileID: 4190707616455234, guid: 67572a653e8e9de4ab89371f3d500c02, type: 3}
      propertyPath: m_LocalEulerAnglesHint.z
      value: 0
      objectReference: {fileID: 0}
    m_RemovedComponents: []
  m_SourcePrefab: {fileID: 100100000, guid: 67572a653e8e9de4ab89371f3d500c02, type: 3}
--- !u!4 &5065792502273970077 stripped
Transform:
  m_CorrespondingSourceObject: {fileID: 4190707616455234, guid: 67572a653e8e9de4ab89371f3d500c02,
    type: 3}
  m_PrefabInstance: {fileID: 5063079650091505119}
  m_PrefabAsset: {fileID: 0}
--- !u!1001 &6179655086008279465
PrefabInstance:
  m_ObjectHideFlags: 0
  serializedVersion: 2
  m_Modification:
    m_TransformParent: {fileID: 1515655578041963582}
    m_Modifications:
    - target: {fileID: 1820733399213554, guid: 67572a653e8e9de4ab89371f3d500c02, type: 3}
      propertyPath: m_Name
      value: ParkLamp
      objectReference: {fileID: 0}
    - target: {fileID: 4190707616455234, guid: 67572a653e8e9de4ab89371f3d500c02, type: 3}
      propertyPath: m_RootOrder
      value: 10
      objectReference: {fileID: 0}
    - target: {fileID: 4190707616455234, guid: 67572a653e8e9de4ab89371f3d500c02, type: 3}
      propertyPath: m_LocalPosition.x
      value: -9.53
      objectReference: {fileID: 0}
    - target: {fileID: 4190707616455234, guid: 67572a653e8e9de4ab89371f3d500c02, type: 3}
      propertyPath: m_LocalPosition.y
      value: 0
      objectReference: {fileID: 0}
    - target: {fileID: 4190707616455234, guid: 67572a653e8e9de4ab89371f3d500c02, type: 3}
      propertyPath: m_LocalPosition.z
      value: -6.53
      objectReference: {fileID: 0}
    - target: {fileID: 4190707616455234, guid: 67572a653e8e9de4ab89371f3d500c02, type: 3}
      propertyPath: m_LocalRotation.w
      value: 1
      objectReference: {fileID: 0}
    - target: {fileID: 4190707616455234, guid: 67572a653e8e9de4ab89371f3d500c02, type: 3}
      propertyPath: m_LocalRotation.x
      value: -0
      objectReference: {fileID: 0}
    - target: {fileID: 4190707616455234, guid: 67572a653e8e9de4ab89371f3d500c02, type: 3}
      propertyPath: m_LocalRotation.y
      value: -0
      objectReference: {fileID: 0}
    - target: {fileID: 4190707616455234, guid: 67572a653e8e9de4ab89371f3d500c02, type: 3}
      propertyPath: m_LocalRotation.z
      value: -0
      objectReference: {fileID: 0}
    - target: {fileID: 4190707616455234, guid: 67572a653e8e9de4ab89371f3d500c02, type: 3}
      propertyPath: m_LocalEulerAnglesHint.x
      value: 0
      objectReference: {fileID: 0}
    - target: {fileID: 4190707616455234, guid: 67572a653e8e9de4ab89371f3d500c02, type: 3}
      propertyPath: m_LocalEulerAnglesHint.y
      value: 0
      objectReference: {fileID: 0}
    - target: {fileID: 4190707616455234, guid: 67572a653e8e9de4ab89371f3d500c02, type: 3}
      propertyPath: m_LocalEulerAnglesHint.z
      value: 0
      objectReference: {fileID: 0}
    m_RemovedComponents: []
  m_SourcePrefab: {fileID: 100100000, guid: 67572a653e8e9de4ab89371f3d500c02, type: 3}
--- !u!4 &6182431708833627115 stripped
Transform:
  m_CorrespondingSourceObject: {fileID: 4190707616455234, guid: 67572a653e8e9de4ab89371f3d500c02,
    type: 3}
  m_PrefabInstance: {fileID: 6179655086008279465}
  m_PrefabAsset: {fileID: 0}
--- !u!1001 &6289414889833807699
PrefabInstance:
  m_ObjectHideFlags: 0
  serializedVersion: 2
  m_Modification:
    m_TransformParent: {fileID: 1515655578041963582}
    m_Modifications:
    - target: {fileID: 1820733399213554, guid: 67572a653e8e9de4ab89371f3d500c02, type: 3}
      propertyPath: m_Name
      value: ParkLamp
      objectReference: {fileID: 0}
    - target: {fileID: 4190707616455234, guid: 67572a653e8e9de4ab89371f3d500c02, type: 3}
      propertyPath: m_RootOrder
      value: 6
      objectReference: {fileID: 0}
    - target: {fileID: 4190707616455234, guid: 67572a653e8e9de4ab89371f3d500c02, type: 3}
      propertyPath: m_LocalPosition.x
      value: 9.44
      objectReference: {fileID: 0}
    - target: {fileID: 4190707616455234, guid: 67572a653e8e9de4ab89371f3d500c02, type: 3}
      propertyPath: m_LocalPosition.y
      value: 0
      objectReference: {fileID: 0}
    - target: {fileID: 4190707616455234, guid: 67572a653e8e9de4ab89371f3d500c02, type: 3}
      propertyPath: m_LocalPosition.z
      value: -2.15
      objectReference: {fileID: 0}
    - target: {fileID: 4190707616455234, guid: 67572a653e8e9de4ab89371f3d500c02, type: 3}
      propertyPath: m_LocalRotation.w
      value: 1
      objectReference: {fileID: 0}
    - target: {fileID: 4190707616455234, guid: 67572a653e8e9de4ab89371f3d500c02, type: 3}
      propertyPath: m_LocalRotation.x
      value: -0
      objectReference: {fileID: 0}
    - target: {fileID: 4190707616455234, guid: 67572a653e8e9de4ab89371f3d500c02, type: 3}
      propertyPath: m_LocalRotation.y
      value: -0
      objectReference: {fileID: 0}
    - target: {fileID: 4190707616455234, guid: 67572a653e8e9de4ab89371f3d500c02, type: 3}
      propertyPath: m_LocalRotation.z
      value: -0
      objectReference: {fileID: 0}
    - target: {fileID: 4190707616455234, guid: 67572a653e8e9de4ab89371f3d500c02, type: 3}
      propertyPath: m_LocalEulerAnglesHint.x
      value: 0
      objectReference: {fileID: 0}
    - target: {fileID: 4190707616455234, guid: 67572a653e8e9de4ab89371f3d500c02, type: 3}
      propertyPath: m_LocalEulerAnglesHint.y
      value: 0
      objectReference: {fileID: 0}
    - target: {fileID: 4190707616455234, guid: 67572a653e8e9de4ab89371f3d500c02, type: 3}
      propertyPath: m_LocalEulerAnglesHint.z
      value: 0
      objectReference: {fileID: 0}
    m_RemovedComponents: []
  m_SourcePrefab: {fileID: 100100000, guid: 67572a653e8e9de4ab89371f3d500c02, type: 3}
--- !u!4 &6288888649598543121 stripped
Transform:
  m_CorrespondingSourceObject: {fileID: 4190707616455234, guid: 67572a653e8e9de4ab89371f3d500c02,
    type: 3}
  m_PrefabInstance: {fileID: 6289414889833807699}
  m_PrefabAsset: {fileID: 0}
--- !u!1001 &6921401020550228029
PrefabInstance:
  m_ObjectHideFlags: 0
  serializedVersion: 2
  m_Modification:
    m_TransformParent: {fileID: 1515655578041963582}
    m_Modifications:
    - target: {fileID: 1820733399213554, guid: 67572a653e8e9de4ab89371f3d500c02, type: 3}
      propertyPath: m_Name
      value: ParkLamp
      objectReference: {fileID: 0}
    - target: {fileID: 4190707616455234, guid: 67572a653e8e9de4ab89371f3d500c02, type: 3}
      propertyPath: m_RootOrder
      value: 11
      objectReference: {fileID: 0}
    - target: {fileID: 4190707616455234, guid: 67572a653e8e9de4ab89371f3d500c02, type: 3}
      propertyPath: m_LocalPosition.x
      value: -9.53
      objectReference: {fileID: 0}
    - target: {fileID: 4190707616455234, guid: 67572a653e8e9de4ab89371f3d500c02, type: 3}
      propertyPath: m_LocalPosition.y
      value: 0
      objectReference: {fileID: 0}
    - target: {fileID: 4190707616455234, guid: 67572a653e8e9de4ab89371f3d500c02, type: 3}
      propertyPath: m_LocalPosition.z
      value: -10.96
      objectReference: {fileID: 0}
    - target: {fileID: 4190707616455234, guid: 67572a653e8e9de4ab89371f3d500c02, type: 3}
      propertyPath: m_LocalRotation.w
      value: 1
      objectReference: {fileID: 0}
    - target: {fileID: 4190707616455234, guid: 67572a653e8e9de4ab89371f3d500c02, type: 3}
      propertyPath: m_LocalRotation.x
      value: -0
      objectReference: {fileID: 0}
    - target: {fileID: 4190707616455234, guid: 67572a653e8e9de4ab89371f3d500c02, type: 3}
      propertyPath: m_LocalRotation.y
      value: -0
      objectReference: {fileID: 0}
    - target: {fileID: 4190707616455234, guid: 67572a653e8e9de4ab89371f3d500c02, type: 3}
      propertyPath: m_LocalRotation.z
      value: -0
      objectReference: {fileID: 0}
    - target: {fileID: 4190707616455234, guid: 67572a653e8e9de4ab89371f3d500c02, type: 3}
      propertyPath: m_LocalEulerAnglesHint.x
      value: 0
      objectReference: {fileID: 0}
    - target: {fileID: 4190707616455234, guid: 67572a653e8e9de4ab89371f3d500c02, type: 3}
      propertyPath: m_LocalEulerAnglesHint.y
      value: 0
      objectReference: {fileID: 0}
    - target: {fileID: 4190707616455234, guid: 67572a653e8e9de4ab89371f3d500c02, type: 3}
      propertyPath: m_LocalEulerAnglesHint.z
      value: 0
      objectReference: {fileID: 0}
    m_RemovedComponents: []
  m_SourcePrefab: {fileID: 100100000, guid: 67572a653e8e9de4ab89371f3d500c02, type: 3}
--- !u!4 &6918411814132396671 stripped
Transform:
  m_CorrespondingSourceObject: {fileID: 4190707616455234, guid: 67572a653e8e9de4ab89371f3d500c02,
    type: 3}
  m_PrefabInstance: {fileID: 6921401020550228029}
  m_PrefabAsset: {fileID: 0}
--- !u!1001 &8585564128272271007
PrefabInstance:
  m_ObjectHideFlags: 0
  serializedVersion: 2
  m_Modification:
    m_TransformParent: {fileID: 1515655578041963582}
    m_Modifications:
    - target: {fileID: -1344312923447608831, guid: 904292f41f94b194d82e73470aae95b8,
        type: 3}
      propertyPath: m_StaticEditorFlags
      value: 4
      objectReference: {fileID: 0}
    - target: {fileID: 100000, guid: 904292f41f94b194d82e73470aae95b8, type: 3}
      propertyPath: m_Name
      value: BC-071
      objectReference: {fileID: 0}
    - target: {fileID: 100000, guid: 904292f41f94b194d82e73470aae95b8, type: 3}
      propertyPath: m_StaticEditorFlags
      value: 4
      objectReference: {fileID: 0}
    - target: {fileID: 100002, guid: 904292f41f94b194d82e73470aae95b8, type: 3}
      propertyPath: m_StaticEditorFlags
      value: 4
      objectReference: {fileID: 0}
    - target: {fileID: 400000, guid: 904292f41f94b194d82e73470aae95b8, type: 3}
      propertyPath: m_RootOrder
      value: 1
      objectReference: {fileID: 0}
    - target: {fileID: 400000, guid: 904292f41f94b194d82e73470aae95b8, type: 3}
      propertyPath: m_LocalPosition.x
      value: 0
      objectReference: {fileID: 0}
    - target: {fileID: 400000, guid: 904292f41f94b194d82e73470aae95b8, type: 3}
      propertyPath: m_LocalPosition.y
      value: 0
      objectReference: {fileID: 0}
    - target: {fileID: 400000, guid: 904292f41f94b194d82e73470aae95b8, type: 3}
      propertyPath: m_LocalPosition.z
      value: -23.4
      objectReference: {fileID: 0}
    - target: {fileID: 400000, guid: 904292f41f94b194d82e73470aae95b8, type: 3}
      propertyPath: m_LocalRotation.w
      value: 1
      objectReference: {fileID: 0}
    - target: {fileID: 400000, guid: 904292f41f94b194d82e73470aae95b8, type: 3}
      propertyPath: m_LocalRotation.x
      value: -0
      objectReference: {fileID: 0}
    - target: {fileID: 400000, guid: 904292f41f94b194d82e73470aae95b8, type: 3}
      propertyPath: m_LocalRotation.y
      value: -0
      objectReference: {fileID: 0}
    - target: {fileID: 400000, guid: 904292f41f94b194d82e73470aae95b8, type: 3}
      propertyPath: m_LocalRotation.z
      value: -0
      objectReference: {fileID: 0}
    - target: {fileID: 400000, guid: 904292f41f94b194d82e73470aae95b8, type: 3}
      propertyPath: m_LocalEulerAnglesHint.x
      value: 0
      objectReference: {fileID: 0}
    - target: {fileID: 400000, guid: 904292f41f94b194d82e73470aae95b8, type: 3}
      propertyPath: m_LocalEulerAnglesHint.y
      value: 0
      objectReference: {fileID: 0}
    - target: {fileID: 400000, guid: 904292f41f94b194d82e73470aae95b8, type: 3}
      propertyPath: m_LocalEulerAnglesHint.z
      value: 0
      objectReference: {fileID: 0}
    m_RemovedComponents:
    - {fileID: 2300002, guid: 904292f41f94b194d82e73470aae95b8, type: 3}
  m_SourcePrefab: {fileID: 100100000, guid: 904292f41f94b194d82e73470aae95b8, type: 3}
--- !u!1 &8585564128272236605 stripped
GameObject:
  m_CorrespondingSourceObject: {fileID: 100002, guid: 904292f41f94b194d82e73470aae95b8,
    type: 3}
  m_PrefabInstance: {fileID: 8585564128272271007}
  m_PrefabAsset: {fileID: 0}
--- !u!4 &8585564128272669727 stripped
Transform:
  m_CorrespondingSourceObject: {fileID: 400000, guid: 904292f41f94b194d82e73470aae95b8,
    type: 3}
  m_PrefabInstance: {fileID: 8585564128272271007}
  m_PrefabAsset: {fileID: 0}
