%YAML 1.1
%TAG !u! tag:unity3d.com,2011:
--- !u!1 &1059182757365022
GameObject:
  m_ObjectHideFlags: 0
  m_CorrespondingSourceObject: {fileID: 0}
  m_PrefabInstance: {fileID: 0}
  m_PrefabAsset: {fileID: 0}
  serializedVersion: 6
  m_Component:
  - component: {fileID: 4480901556095522}
  - component: {fileID: 33700476585987188}
  - component: {fileID: 64551183303077362}
  m_Layer: 0
  m_Name: Base-Corner-04-Collider
  m_TagString: Untagged
  m_Icon: {fileID: 0}
  m_NavMeshLayer: 0
  m_StaticEditorFlags: 4
  m_IsActive: 1
--- !u!4 &4480901556095522
Transform:
  m_ObjectHideFlags: 0
  m_CorrespondingSourceObject: {fileID: 0}
  m_PrefabInstance: {fileID: 0}
  m_PrefabAsset: {fileID: 0}
  m_GameObject: {fileID: 1059182757365022}
  m_LocalRotation: {x: 0, y: -0, z: -0, w: 1}
  m_LocalPosition: {x: -0, y: 0, z: 0}
  m_LocalScale: {x: 1, y: 1, z: 1}
  m_Children: []
  m_Father: {fileID: 4544201243047636}
  m_RootOrder: 0
  m_LocalEulerAnglesHint: {x: 0, y: 0, z: 0}
--- !u!33 &33700476585987188
MeshFilter:
  m_ObjectHideFlags: 0
  m_CorrespondingSourceObject: {fileID: 0}
  m_PrefabInstance: {fileID: 0}
  m_PrefabAsset: {fileID: 0}
  m_GameObject: {fileID: 1059182757365022}
  m_Mesh: {fileID: 4300002, guid: be1f00f08e60f244986448ebb017e92c, type: 3}
--- !u!64 &64551183303077362
MeshCollider:
  m_ObjectHideFlags: 0
  m_CorrespondingSourceObject: {fileID: 0}
  m_PrefabInstance: {fileID: 0}
  m_PrefabAsset: {fileID: 0}
  m_GameObject: {fileID: 1059182757365022}
  m_Material: {fileID: 0}
  m_IsTrigger: 0
  m_Enabled: 1
  serializedVersion: 4
  m_Convex: 0
  m_CookingOptions: 30
  m_Mesh: {fileID: 4300002, guid: be1f00f08e60f244986448ebb017e92c, type: 3}
--- !u!1 &1296430312744132
GameObject:
  m_ObjectHideFlags: 0
  m_CorrespondingSourceObject: {fileID: 0}
  m_PrefabInstance: {fileID: 0}
  m_PrefabAsset: {fileID: 0}
  serializedVersion: 6
  m_Component:
  - component: {fileID: 4544201243047636}
  - component: {fileID: 33966677477613834}
  - component: {fileID: 23185483634958266}
  m_Layer: 0
  m_Name: BR-014
  m_TagString: Untagged
  m_Icon: {fileID: 0}
  m_NavMeshLayer: 0
  m_StaticEditorFlags: 4
  m_IsActive: 1
--- !u!4 &4544201243047636
Transform:
  m_ObjectHideFlags: 0
  m_CorrespondingSourceObject: {fileID: 0}
  m_PrefabInstance: {fileID: 0}
  m_PrefabAsset: {fileID: 0}
  m_GameObject: {fileID: 1296430312744132}
  m_LocalRotation: {x: 0, y: 0, z: 0, w: 1}
  m_LocalPosition: {x: 0, y: 0, z: 0}
  m_LocalScale: {x: 1, y: 1, z: 1}
  m_Children:
  - {fileID: 4480901556095522}
  - {fileID: 4083244044571264}
  - {fileID: 6339090695744927087}
  - {fileID: 4618813196690787371}
  - {fileID: 2471495886697490520}
  - {fileID: 286005617825427044}
  - {fileID: 3352111473351701043}
  - {fileID: 3589850089981080898}
  - {fileID: 4046582558755320109}
  - {fileID: 3365088957391763126}
  - {fileID: 1979854865369938084}
  - {fileID: 7715634256493306901}
  - {fileID: 6722413345797791476}
  m_Father: {fileID: 0}
  m_RootOrder: 0
  m_LocalEulerAnglesHint: {x: 0, y: 0, z: 0}
--- !u!33 &33966677477613834
MeshFilter:
  m_ObjectHideFlags: 0
  m_CorrespondingSourceObject: {fileID: 0}
  m_PrefabInstance: {fileID: 0}
  m_PrefabAsset: {fileID: 0}
  m_GameObject: {fileID: 1296430312744132}
  m_Mesh: {fileID: 4300000, guid: be1f00f08e60f244986448ebb017e92c, type: 3}
--- !u!23 &23185483634958266
MeshRenderer:
  m_ObjectHideFlags: 0
  m_CorrespondingSourceObject: {fileID: 0}
  m_PrefabInstance: {fileID: 0}
  m_PrefabAsset: {fileID: 0}
  m_GameObject: {fileID: 1296430312744132}
  m_Enabled: 1
  m_CastShadows: 1
  m_ReceiveShadows: 1
  m_DynamicOccludee: 1
  m_MotionVectors: 1
  m_LightProbeUsage: 1
  m_ReflectionProbeUsage: 1
  m_RayTracingMode: 2
  m_RenderingLayerMask: 1
  m_RendererPriority: 0
  m_Materials:
  - {fileID: 2100000, guid: 59aa769bd1562c543b982eedfb107b96, type: 2}
  - {fileID: 2100000, guid: f9a48a42036ef934da02e5fe6da4f4c7, type: 2}
  - {fileID: 2100000, guid: cb940e2093c5e184bb0961b0c91a798b, type: 2}
  m_StaticBatchInfo:
    firstSubMesh: 0
    subMeshCount: 0
  m_StaticBatchRoot: {fileID: 0}
  m_ProbeAnchor: {fileID: 0}
  m_LightProbeVolumeOverride: {fileID: 0}
  m_ScaleInLightmap: 1
  m_ReceiveGI: 1
  m_PreserveUVs: 0
  m_IgnoreNormalsForChartDetection: 0
  m_ImportantGI: 0
  m_StitchLightmapSeams: 0
  m_SelectedEditorRenderState: 3
  m_MinimumChartSize: 4
  m_AutoUVMaxDistance: 0.5
  m_AutoUVMaxAngle: 89
  m_LightmapParameters: {fileID: 0}
  m_SortingLayerID: 0
  m_SortingLayer: 0
  m_SortingOrder: 0
--- !u!1 &1853755859347700
GameObject:
  m_ObjectHideFlags: 0
  m_CorrespondingSourceObject: {fileID: 0}
  m_PrefabInstance: {fileID: 0}
  m_PrefabAsset: {fileID: 0}
  serializedVersion: 6
  m_Component:
  - component: {fileID: 4083244044571264}
  - component: {fileID: 33046748674965610}
  - component: {fileID: 23856692232840190}
  m_Layer: 0
  m_Name: BR-014
  m_TagString: Untagged
  m_Icon: {fileID: 0}
  m_NavMeshLayer: 0
  m_StaticEditorFlags: 4
  m_IsActive: 1
--- !u!4 &4083244044571264
Transform:
  m_ObjectHideFlags: 0
  m_CorrespondingSourceObject: {fileID: 0}
  m_PrefabInstance: {fileID: 0}
  m_PrefabAsset: {fileID: 0}
  m_GameObject: {fileID: 1853755859347700}
  m_LocalRotation: {x: -0, y: 0.7071068, z: -0, w: 0.7071068}
  m_LocalPosition: {x: 7.040001, y: 1, z: -17.96}
  m_LocalScale: {x: 1, y: 1, z: 1}
  m_Children: []
  m_Father: {fileID: 4544201243047636}
  m_RootOrder: 1
  m_LocalEulerAnglesHint: {x: 0, y: 90, z: 0}
--- !u!33 &33046748674965610
MeshFilter:
  m_ObjectHideFlags: 0
  m_CorrespondingSourceObject: {fileID: 0}
  m_PrefabInstance: {fileID: 0}
  m_PrefabAsset: {fileID: 0}
  m_GameObject: {fileID: 1853755859347700}
  m_Mesh: {fileID: 4300000, guid: c336bbe51a5ed1d4c97138e73e74d64e, type: 3}
--- !u!23 &23856692232840190
MeshRenderer:
  m_ObjectHideFlags: 0
  m_CorrespondingSourceObject: {fileID: 0}
  m_PrefabInstance: {fileID: 0}
  m_PrefabAsset: {fileID: 0}
  m_GameObject: {fileID: 1853755859347700}
  m_Enabled: 1
  m_CastShadows: 1
  m_ReceiveShadows: 1
  m_DynamicOccludee: 1
  m_MotionVectors: 1
  m_LightProbeUsage: 1
  m_ReflectionProbeUsage: 1
  m_RayTracingMode: 2
  m_RenderingLayerMask: 1
  m_RendererPriority: 0
  m_Materials:
  - {fileID: 2100000, guid: 59aa769bd1562c543b982eedfb107b96, type: 2}
  - {fileID: 2100000, guid: 1783dae8770f9d244920a527ac4d1046, type: 2}
  - {fileID: 2100000, guid: cb940e2093c5e184bb0961b0c91a798b, type: 2}
  m_StaticBatchInfo:
    firstSubMesh: 0
    subMeshCount: 0
  m_StaticBatchRoot: {fileID: 0}
  m_ProbeAnchor: {fileID: 0}
  m_LightProbeVolumeOverride: {fileID: 0}
  m_ScaleInLightmap: 1
  m_ReceiveGI: 1
  m_PreserveUVs: 0
  m_IgnoreNormalsForChartDetection: 0
  m_ImportantGI: 0
  m_StitchLightmapSeams: 0
  m_SelectedEditorRenderState: 3
  m_MinimumChartSize: 4
  m_AutoUVMaxDistance: 0.5
  m_AutoUVMaxAngle: 89
  m_LightmapParameters: {fileID: 0}
  m_SortingLayerID: 0
  m_SortingLayer: 0
  m_SortingOrder: 0
--- !u!1 &286005617825919556
GameObject:
  m_ObjectHideFlags: 0
  m_CorrespondingSourceObject: {fileID: 0}
  m_PrefabInstance: {fileID: 0}
  m_PrefabAsset: {fileID: 0}
  serializedVersion: 6
  m_Component:
  - component: {fileID: 286005617825427044}
  - component: {fileID: 286005617828851268}
  - component: {fileID: 286005617827851396}
  m_Layer: 0
  m_Name: Tree-A-02 (1)
  m_TagString: Untagged
  m_Icon: {fileID: 0}
  m_NavMeshLayer: 0
  m_StaticEditorFlags: 4
  m_IsActive: 1
--- !u!4 &286005617825427044
Transform:
  m_ObjectHideFlags: 0
  m_CorrespondingSourceObject: {fileID: 0}
  m_PrefabInstance: {fileID: 0}
  m_PrefabAsset: {fileID: 0}
  m_GameObject: {fileID: 286005617825919556}
  m_LocalRotation: {x: -0, y: -0, z: -0, w: 1}
  m_LocalPosition: {x: 14.73, y: 0.31, z: -12.39}
  m_LocalScale: {x: 1, y: 1, z: 1}
  m_Children: []
  m_Father: {fileID: 4544201243047636}
  m_RootOrder: 5
  m_LocalEulerAnglesHint: {x: 0, y: 0, z: 0}
--- !u!33 &286005617828851268
MeshFilter:
  m_ObjectHideFlags: 0
  m_CorrespondingSourceObject: {fileID: 0}
  m_PrefabInstance: {fileID: 0}
  m_PrefabAsset: {fileID: 0}
  m_GameObject: {fileID: 286005617825919556}
  m_Mesh: {fileID: 4300000, guid: 33c22593ae0a379428f91a8e6b3d9856, type: 3}
--- !u!23 &286005617827851396
MeshRenderer:
  m_ObjectHideFlags: 0
  m_CorrespondingSourceObject: {fileID: 0}
  m_PrefabInstance: {fileID: 0}
  m_PrefabAsset: {fileID: 0}
  m_GameObject: {fileID: 286005617825919556}
  m_Enabled: 1
  m_CastShadows: 1
  m_ReceiveShadows: 1
  m_DynamicOccludee: 1
  m_MotionVectors: 1
  m_LightProbeUsage: 1
  m_ReflectionProbeUsage: 1
  m_RayTracingMode: 2
  m_RenderingLayerMask: 1
  m_RendererPriority: 0
  m_Materials:
  - {fileID: 2100000, guid: 02e4ddcf3844c6b4dad2b8d7d998265e, type: 2}
  m_StaticBatchInfo:
    firstSubMesh: 0
    subMeshCount: 0
  m_StaticBatchRoot: {fileID: 0}
  m_ProbeAnchor: {fileID: 0}
  m_LightProbeVolumeOverride: {fileID: 0}
  m_ScaleInLightmap: 1
  m_ReceiveGI: 1
  m_PreserveUVs: 0
  m_IgnoreNormalsForChartDetection: 0
  m_ImportantGI: 0
  m_StitchLightmapSeams: 0
  m_SelectedEditorRenderState: 3
  m_MinimumChartSize: 4
  m_AutoUVMaxDistance: 0.5
  m_AutoUVMaxAngle: 89
  m_LightmapParameters: {fileID: 0}
  m_SortingLayerID: 0
  m_SortingLayer: 0
  m_SortingOrder: 0
--- !u!1 &2471495886697854072
GameObject:
  m_ObjectHideFlags: 0
  m_CorrespondingSourceObject: {fileID: 0}
  m_PrefabInstance: {fileID: 0}
  m_PrefabAsset: {fileID: 0}
  serializedVersion: 6
  m_Component:
  - component: {fileID: 2471495886697490520}
  - component: {fileID: 2471495886694590584}
  - component: {fileID: 2471495886695590584}
  m_Layer: 0
  m_Name: Tree-A-01 (1)
  m_TagString: Untagged
  m_Icon: {fileID: 0}
  m_NavMeshLayer: 0
  m_StaticEditorFlags: 4
  m_IsActive: 1
--- !u!4 &2471495886697490520
Transform:
  m_ObjectHideFlags: 0
  m_CorrespondingSourceObject: {fileID: 0}
  m_PrefabInstance: {fileID: 0}
  m_PrefabAsset: {fileID: 0}
  m_GameObject: {fileID: 2471495886697854072}
  m_LocalRotation: {x: -0, y: -0, z: -0, w: 1}
  m_LocalPosition: {x: 14.97, y: 0.40934017, z: -24.72}
  m_LocalScale: {x: 1, y: 1, z: 1}
  m_Children: []
  m_Father: {fileID: 4544201243047636}
  m_RootOrder: 4
  m_LocalEulerAnglesHint: {x: 0, y: 0, z: 0}
--- !u!33 &2471495886694590584
MeshFilter:
  m_ObjectHideFlags: 0
  m_CorrespondingSourceObject: {fileID: 0}
  m_PrefabInstance: {fileID: 0}
  m_PrefabAsset: {fileID: 0}
  m_GameObject: {fileID: 2471495886697854072}
  m_Mesh: {fileID: 4300000, guid: cba706ee5084b094bbbcd9dce4d615d3, type: 3}
--- !u!23 &2471495886695590584
MeshRenderer:
  m_ObjectHideFlags: 0
  m_CorrespondingSourceObject: {fileID: 0}
  m_PrefabInstance: {fileID: 0}
  m_PrefabAsset: {fileID: 0}
  m_GameObject: {fileID: 2471495886697854072}
  m_Enabled: 1
  m_CastShadows: 1
  m_ReceiveShadows: 1
  m_DynamicOccludee: 1
  m_MotionVectors: 1
  m_LightProbeUsage: 1
  m_ReflectionProbeUsage: 1
  m_RayTracingMode: 2
  m_RenderingLayerMask: 1
  m_RendererPriority: 0
  m_Materials:
  - {fileID: 2100000, guid: 02e4ddcf3844c6b4dad2b8d7d998265e, type: 2}
  m_StaticBatchInfo:
    firstSubMesh: 0
    subMeshCount: 0
  m_StaticBatchRoot: {fileID: 0}
  m_ProbeAnchor: {fileID: 0}
  m_LightProbeVolumeOverride: {fileID: 0}
  m_ScaleInLightmap: 1
  m_ReceiveGI: 1
  m_PreserveUVs: 0
  m_IgnoreNormalsForChartDetection: 0
  m_ImportantGI: 0
  m_StitchLightmapSeams: 0
  m_SelectedEditorRenderState: 3
  m_MinimumChartSize: 4
  m_AutoUVMaxDistance: 0.5
  m_AutoUVMaxAngle: 89
  m_LightmapParameters: {fileID: 0}
  m_SortingLayerID: 0
  m_SortingLayer: 0
  m_SortingOrder: 0
--- !u!1 &4618813196690755595
GameObject:
  m_ObjectHideFlags: 0
  m_CorrespondingSourceObject: {fileID: 0}
  m_PrefabInstance: {fileID: 0}
  m_PrefabAsset: {fileID: 0}
  serializedVersion: 6
  m_Component:
  - component: {fileID: 4618813196690787371}
  - component: {fileID: 4618813196689493003}
  - component: {fileID: 4618813196688494283}
  m_Layer: 0
  m_Name: Tree-A-02
  m_TagString: Untagged
  m_Icon: {fileID: 0}
  m_NavMeshLayer: 0
  m_StaticEditorFlags: 4
  m_IsActive: 1
--- !u!4 &4618813196690787371
Transform:
  m_ObjectHideFlags: 0
  m_CorrespondingSourceObject: {fileID: 0}
  m_PrefabInstance: {fileID: 0}
  m_PrefabAsset: {fileID: 0}
  m_GameObject: {fileID: 4618813196690755595}
  m_LocalRotation: {x: -0, y: -0, z: -0, w: 1}
  m_LocalPosition: {x: 14.81, y: 0.31, z: -33.53}
  m_LocalScale: {x: 1, y: 1, z: 1}
  m_Children: []
  m_Father: {fileID: 4544201243047636}
  m_RootOrder: 3
  m_LocalEulerAnglesHint: {x: 0, y: 0, z: 0}
--- !u!33 &4618813196689493003
MeshFilter:
  m_ObjectHideFlags: 0
  m_CorrespondingSourceObject: {fileID: 0}
  m_PrefabInstance: {fileID: 0}
  m_PrefabAsset: {fileID: 0}
  m_GameObject: {fileID: 4618813196690755595}
  m_Mesh: {fileID: 4300000, guid: 33c22593ae0a379428f91a8e6b3d9856, type: 3}
--- !u!23 &4618813196688494283
MeshRenderer:
  m_ObjectHideFlags: 0
  m_CorrespondingSourceObject: {fileID: 0}
  m_PrefabInstance: {fileID: 0}
  m_PrefabAsset: {fileID: 0}
  m_GameObject: {fileID: 4618813196690755595}
  m_Enabled: 1
  m_CastShadows: 1
  m_ReceiveShadows: 1
  m_DynamicOccludee: 1
  m_MotionVectors: 1
  m_LightProbeUsage: 1
  m_ReflectionProbeUsage: 1
  m_RayTracingMode: 2
  m_RenderingLayerMask: 1
  m_RendererPriority: 0
  m_Materials:
  - {fileID: 2100000, guid: 02e4ddcf3844c6b4dad2b8d7d998265e, type: 2}
  m_StaticBatchInfo:
    firstSubMesh: 0
    subMeshCount: 0
  m_StaticBatchRoot: {fileID: 0}
  m_ProbeAnchor: {fileID: 0}
  m_LightProbeVolumeOverride: {fileID: 0}
  m_ScaleInLightmap: 1
  m_ReceiveGI: 1
  m_PreserveUVs: 0
  m_IgnoreNormalsForChartDetection: 0
  m_ImportantGI: 0
  m_StitchLightmapSeams: 0
  m_SelectedEditorRenderState: 3
  m_MinimumChartSize: 4
  m_AutoUVMaxDistance: 0.5
  m_AutoUVMaxAngle: 89
  m_LightmapParameters: {fileID: 0}
  m_SortingLayerID: 0
  m_SortingLayer: 0
  m_SortingOrder: 0
--- !u!1 &6339090695744891215
GameObject:
  m_ObjectHideFlags: 0
  m_CorrespondingSourceObject: {fileID: 0}
  m_PrefabInstance: {fileID: 0}
  m_PrefabAsset: {fileID: 0}
  serializedVersion: 6
  m_Component:
  - component: {fileID: 6339090695744927087}
  - component: {fileID: 6339090695745729871}
  - component: {fileID: 6339090695746828175}
  m_Layer: 0
  m_Name: Tree-A-01
  m_TagString: Untagged
  m_Icon: {fileID: 0}
  m_NavMeshLayer: 0
  m_StaticEditorFlags: 4
  m_IsActive: 1
--- !u!4 &6339090695744927087
Transform:
  m_ObjectHideFlags: 0
  m_CorrespondingSourceObject: {fileID: 0}
  m_PrefabInstance: {fileID: 0}
  m_PrefabAsset: {fileID: 0}
  m_GameObject: {fileID: 6339090695744891215}
  m_LocalRotation: {x: -0, y: -0, z: -0, w: 1}
  m_LocalPosition: {x: 14.76, y: 0.40934017, z: -5.95}
  m_LocalScale: {x: 1, y: 1, z: 1}
  m_Children: []
  m_Father: {fileID: 4544201243047636}
  m_RootOrder: 2
  m_LocalEulerAnglesHint: {x: 0, y: 0, z: 0}
--- !u!33 &6339090695745729871
MeshFilter:
  m_ObjectHideFlags: 0
  m_CorrespondingSourceObject: {fileID: 0}
  m_PrefabInstance: {fileID: 0}
  m_PrefabAsset: {fileID: 0}
  m_GameObject: {fileID: 6339090695744891215}
  m_Mesh: {fileID: 4300000, guid: cba706ee5084b094bbbcd9dce4d615d3, type: 3}
--- !u!23 &6339090695746828175
MeshRenderer:
  m_ObjectHideFlags: 0
  m_CorrespondingSourceObject: {fileID: 0}
  m_PrefabInstance: {fileID: 0}
  m_PrefabAsset: {fileID: 0}
  m_GameObject: {fileID: 6339090695744891215}
  m_Enabled: 1
  m_CastShadows: 1
  m_ReceiveShadows: 1
  m_DynamicOccludee: 1
  m_MotionVectors: 1
  m_LightProbeUsage: 1
  m_ReflectionProbeUsage: 1
  m_RayTracingMode: 2
  m_RenderingLayerMask: 1
  m_RendererPriority: 0
  m_Materials:
  - {fileID: 2100000, guid: 02e4ddcf3844c6b4dad2b8d7d998265e, type: 2}
  m_StaticBatchInfo:
    firstSubMesh: 0
    subMeshCount: 0
  m_StaticBatchRoot: {fileID: 0}
  m_ProbeAnchor: {fileID: 0}
  m_LightProbeVolumeOverride: {fileID: 0}
  m_ScaleInLightmap: 1
  m_ReceiveGI: 1
  m_PreserveUVs: 0
  m_IgnoreNormalsForChartDetection: 0
  m_ImportantGI: 0
  m_StitchLightmapSeams: 0
  m_SelectedEditorRenderState: 3
  m_MinimumChartSize: 4
  m_AutoUVMaxDistance: 0.5
  m_AutoUVMaxAngle: 89
  m_LightmapParameters: {fileID: 0}
  m_SortingLayerID: 0
  m_SortingLayer: 0
  m_SortingOrder: 0
--- !u!1001 &2086119903442067279
PrefabInstance:
  m_ObjectHideFlags: 0
  serializedVersion: 2
  m_Modification:
    m_TransformParent: {fileID: 4544201243047636}
    m_Modifications:
    - target: {fileID: -8679921383154817045, guid: 2b420d663273cec4b852e7d4b77baa31,
        type: 3}
      propertyPath: m_RootOrder
      value: 10
      objectReference: {fileID: 0}
    - target: {fileID: -8679921383154817045, guid: 2b420d663273cec4b852e7d4b77baa31,
        type: 3}
      propertyPath: m_LocalPosition.x
      value: 5.084
      objectReference: {fileID: 0}
    - target: {fileID: -8679921383154817045, guid: 2b420d663273cec4b852e7d4b77baa31,
        type: 3}
      propertyPath: m_LocalPosition.y
      value: 0.486
      objectReference: {fileID: 0}
    - target: {fileID: -8679921383154817045, guid: 2b420d663273cec4b852e7d4b77baa31,
        type: 3}
      propertyPath: m_LocalPosition.z
      value: -0.6717606
      objectReference: {fileID: 0}
    - target: {fileID: -8679921383154817045, guid: 2b420d663273cec4b852e7d4b77baa31,
        type: 3}
      propertyPath: m_LocalRotation.w
      value: 1
      objectReference: {fileID: 0}
    - target: {fileID: -8679921383154817045, guid: 2b420d663273cec4b852e7d4b77baa31,
        type: 3}
      propertyPath: m_LocalRotation.x
      value: -0
      objectReference: {fileID: 0}
    - target: {fileID: -8679921383154817045, guid: 2b420d663273cec4b852e7d4b77baa31,
        type: 3}
      propertyPath: m_LocalRotation.y
      value: -0
      objectReference: {fileID: 0}
    - target: {fileID: -8679921383154817045, guid: 2b420d663273cec4b852e7d4b77baa31,
        type: 3}
      propertyPath: m_LocalRotation.z
      value: -0
      objectReference: {fileID: 0}
    - target: {fileID: -8679921383154817045, guid: 2b420d663273cec4b852e7d4b77baa31,
        type: 3}
      propertyPath: m_LocalEulerAnglesHint.x
      value: 0
      objectReference: {fileID: 0}
    - target: {fileID: -8679921383154817045, guid: 2b420d663273cec4b852e7d4b77baa31,
        type: 3}
      propertyPath: m_LocalEulerAnglesHint.y
      value: 0
      objectReference: {fileID: 0}
    - target: {fileID: -8679921383154817045, guid: 2b420d663273cec4b852e7d4b77baa31,
        type: 3}
      propertyPath: m_LocalEulerAnglesHint.z
      value: 0
      objectReference: {fileID: 0}
    - target: {fileID: 919132149155446097, guid: 2b420d663273cec4b852e7d4b77baa31,
        type: 3}
      propertyPath: m_Name
      value: Vegetation-05
      objectReference: {fileID: 0}
    - target: {fileID: 919132149155446097, guid: 2b420d663273cec4b852e7d4b77baa31,
        type: 3}
      propertyPath: m_StaticEditorFlags
      value: 4
      objectReference: {fileID: 0}
    m_RemovedComponents: []
  m_SourcePrefab: {fileID: 100100000, guid: 2b420d663273cec4b852e7d4b77baa31, type: 3}
--- !u!4 &1979854865369938084 stripped
Transform:
  m_CorrespondingSourceObject: {fileID: -8679921383154817045, guid: 2b420d663273cec4b852e7d4b77baa31,
    type: 3}
  m_PrefabInstance: {fileID: 2086119903442067279}
  m_PrefabAsset: {fileID: 0}
--- !u!1001 &2958775768275932632
PrefabInstance:
  m_ObjectHideFlags: 0
  serializedVersion: 2
  m_Modification:
    m_TransformParent: {fileID: 4544201243047636}
    m_Modifications:
    - target: {fileID: -8679921383154817045, guid: 5273e8dca2416ea43bf2ae1834a34365,
        type: 3}
      propertyPath: m_RootOrder
      value: 6
      objectReference: {fileID: 0}
    - target: {fileID: -8679921383154817045, guid: 5273e8dca2416ea43bf2ae1834a34365,
        type: 3}
      propertyPath: m_LocalPosition.x
      value: 16.671
      objectReference: {fileID: 0}
    - target: {fileID: -8679921383154817045, guid: 5273e8dca2416ea43bf2ae1834a34365,
        type: 3}
      propertyPath: m_LocalPosition.y
      value: 0.319
      objectReference: {fileID: 0}
    - target: {fileID: -8679921383154817045, guid: 5273e8dca2416ea43bf2ae1834a34365,
        type: 3}
      propertyPath: m_LocalPosition.z
      value: -10.041617
      objectReference: {fileID: 0}
    - target: {fileID: -8679921383154817045, guid: 5273e8dca2416ea43bf2ae1834a34365,
        type: 3}
      propertyPath: m_LocalRotation.w
      value: 1
      objectReference: {fileID: 0}
    - target: {fileID: -8679921383154817045, guid: 5273e8dca2416ea43bf2ae1834a34365,
        type: 3}
      propertyPath: m_LocalRotation.x
      value: -0
      objectReference: {fileID: 0}
    - target: {fileID: -8679921383154817045, guid: 5273e8dca2416ea43bf2ae1834a34365,
        type: 3}
      propertyPath: m_LocalRotation.y
      value: -0
      objectReference: {fileID: 0}
    - target: {fileID: -8679921383154817045, guid: 5273e8dca2416ea43bf2ae1834a34365,
        type: 3}
      propertyPath: m_LocalRotation.z
      value: -0
      objectReference: {fileID: 0}
    - target: {fileID: -8679921383154817045, guid: 5273e8dca2416ea43bf2ae1834a34365,
        type: 3}
      propertyPath: m_LocalEulerAnglesHint.x
      value: 0
      objectReference: {fileID: 0}
    - target: {fileID: -8679921383154817045, guid: 5273e8dca2416ea43bf2ae1834a34365,
        type: 3}
      propertyPath: m_LocalEulerAnglesHint.y
      value: 0
      objectReference: {fileID: 0}
    - target: {fileID: -8679921383154817045, guid: 5273e8dca2416ea43bf2ae1834a34365,
        type: 3}
      propertyPath: m_LocalEulerAnglesHint.z
      value: 0
      objectReference: {fileID: 0}
    - target: {fileID: 919132149155446097, guid: 5273e8dca2416ea43bf2ae1834a34365,
        type: 3}
      propertyPath: m_Name
      value: Vegetation-03
      objectReference: {fileID: 0}
    - target: {fileID: 919132149155446097, guid: 5273e8dca2416ea43bf2ae1834a34365,
        type: 3}
      propertyPath: m_StaticEditorFlags
      value: 4
      objectReference: {fileID: 0}
    m_RemovedComponents: []
  m_SourcePrefab: {fileID: 100100000, guid: 5273e8dca2416ea43bf2ae1834a34365, type: 3}
--- !u!4 &3352111473351701043 stripped
Transform:
  m_CorrespondingSourceObject: {fileID: -8679921383154817045, guid: 5273e8dca2416ea43bf2ae1834a34365,
    type: 3}
  m_PrefabInstance: {fileID: 2958775768275932632}
  m_PrefabAsset: {fileID: 0}
--- !u!1001 &3365088957391629366
PrefabInstance:
  m_ObjectHideFlags: 0
  serializedVersion: 2
  m_Modification:
    m_TransformParent: {fileID: 4544201243047636}
    m_Modifications:
    - target: {fileID: 100000, guid: 7d6ab47cde74a4546a1d05d8d79c351c, type: 3}
      propertyPath: m_Name
      value: Fern-02 (1)
      objectReference: {fileID: 0}
    - target: {fileID: 100000, guid: 7d6ab47cde74a4546a1d05d8d79c351c, type: 3}
      propertyPath: m_StaticEditorFlags
      value: 4
      objectReference: {fileID: 0}
    - target: {fileID: 400000, guid: 7d6ab47cde74a4546a1d05d8d79c351c, type: 3}
      propertyPath: m_RootOrder
      value: 9
      objectReference: {fileID: 0}
    - target: {fileID: 400000, guid: 7d6ab47cde74a4546a1d05d8d79c351c, type: 3}
      propertyPath: m_LocalPosition.x
      value: 16.30946
      objectReference: {fileID: 0}
    - target: {fileID: 400000, guid: 7d6ab47cde74a4546a1d05d8d79c351c, type: 3}
      propertyPath: m_LocalPosition.y
      value: 0.4093402
      objectReference: {fileID: 0}
    - target: {fileID: 400000, guid: 7d6ab47cde74a4546a1d05d8d79c351c, type: 3}
      propertyPath: m_LocalPosition.z
      value: -29.481094
      objectReference: {fileID: 0}
    - target: {fileID: 400000, guid: 7d6ab47cde74a4546a1d05d8d79c351c, type: 3}
      propertyPath: m_LocalRotation.w
      value: 0.8461932
      objectReference: {fileID: 0}
    - target: {fileID: 400000, guid: 7d6ab47cde74a4546a1d05d8d79c351c, type: 3}
      propertyPath: m_LocalRotation.x
      value: 0
      objectReference: {fileID: 0}
    - target: {fileID: 400000, guid: 7d6ab47cde74a4546a1d05d8d79c351c, type: 3}
      propertyPath: m_LocalRotation.y
      value: 0.5328763
      objectReference: {fileID: 0}
    - target: {fileID: 400000, guid: 7d6ab47cde74a4546a1d05d8d79c351c, type: 3}
      propertyPath: m_LocalRotation.z
      value: 0
      objectReference: {fileID: 0}
    - target: {fileID: 400000, guid: 7d6ab47cde74a4546a1d05d8d79c351c, type: 3}
      propertyPath: m_LocalEulerAnglesHint.x
      value: 0
      objectReference: {fileID: 0}
    - target: {fileID: 400000, guid: 7d6ab47cde74a4546a1d05d8d79c351c, type: 3}
      propertyPath: m_LocalEulerAnglesHint.y
      value: 64.4
      objectReference: {fileID: 0}
    - target: {fileID: 400000, guid: 7d6ab47cde74a4546a1d05d8d79c351c, type: 3}
      propertyPath: m_LocalEulerAnglesHint.z
      value: 0
      objectReference: {fileID: 0}
    m_RemovedComponents: []
  m_SourcePrefab: {fileID: 100100000, guid: 7d6ab47cde74a4546a1d05d8d79c351c, type: 3}
--- !u!4 &3365088957391763126 stripped
Transform:
  m_CorrespondingSourceObject: {fileID: 400000, guid: 7d6ab47cde74a4546a1d05d8d79c351c,
    type: 3}
  m_PrefabInstance: {fileID: 3365088957391629366}
  m_PrefabAsset: {fileID: 0}
--- !u!1001 &3916738450371678889
PrefabInstance:
  m_ObjectHideFlags: 0
  serializedVersion: 2
  m_Modification:
    m_TransformParent: {fileID: 4544201243047636}
    m_Modifications:
    - target: {fileID: -8679921383154817045, guid: 5273e8dca2416ea43bf2ae1834a34365,
        type: 3}
      propertyPath: m_RootOrder
      value: 7
      objectReference: {fileID: 0}
    - target: {fileID: -8679921383154817045, guid: 5273e8dca2416ea43bf2ae1834a34365,
        type: 3}
      propertyPath: m_LocalPosition.x
      value: 16.578
      objectReference: {fileID: 0}
    - target: {fileID: -8679921383154817045, guid: 5273e8dca2416ea43bf2ae1834a34365,
        type: 3}
      propertyPath: m_LocalPosition.y
      value: 0.354
      objectReference: {fileID: 0}
    - target: {fileID: -8679921383154817045, guid: 5273e8dca2416ea43bf2ae1834a34365,
        type: 3}
      propertyPath: m_LocalPosition.z
      value: -29.007248
      objectReference: {fileID: 0}
    - target: {fileID: -8679921383154817045, guid: 5273e8dca2416ea43bf2ae1834a34365,
        type: 3}
      propertyPath: m_LocalRotation.w
      value: 0.87500024
      objectReference: {fileID: 0}
    - target: {fileID: -8679921383154817045, guid: 5273e8dca2416ea43bf2ae1834a34365,
        type: 3}
      propertyPath: m_LocalRotation.x
      value: 0
      objectReference: {fileID: 0}
    - target: {fileID: -8679921383154817045, guid: 5273e8dca2416ea43bf2ae1834a34365,
        type: 3}
      propertyPath: m_LocalRotation.y
      value: 0.4841225
      objectReference: {fileID: 0}
    - target: {fileID: -8679921383154817045, guid: 5273e8dca2416ea43bf2ae1834a34365,
        type: 3}
      propertyPath: m_LocalRotation.z
      value: 0
      objectReference: {fileID: 0}
    - target: {fileID: -8679921383154817045, guid: 5273e8dca2416ea43bf2ae1834a34365,
        type: 3}
      propertyPath: m_LocalEulerAnglesHint.x
      value: 0
      objectReference: {fileID: 0}
    - target: {fileID: -8679921383154817045, guid: 5273e8dca2416ea43bf2ae1834a34365,
        type: 3}
      propertyPath: m_LocalEulerAnglesHint.y
      value: 57.91
      objectReference: {fileID: 0}
    - target: {fileID: -8679921383154817045, guid: 5273e8dca2416ea43bf2ae1834a34365,
        type: 3}
      propertyPath: m_LocalEulerAnglesHint.z
      value: 0
      objectReference: {fileID: 0}
    - target: {fileID: 919132149155446097, guid: 5273e8dca2416ea43bf2ae1834a34365,
        type: 3}
      propertyPath: m_Name
      value: Vegetation-03 (1)
      objectReference: {fileID: 0}
    - target: {fileID: 919132149155446097, guid: 5273e8dca2416ea43bf2ae1834a34365,
        type: 3}
      propertyPath: m_StaticEditorFlags
      value: 4
      objectReference: {fileID: 0}
    m_RemovedComponents: []
  m_SourcePrefab: {fileID: 100100000, guid: 5273e8dca2416ea43bf2ae1834a34365, type: 3}
--- !u!4 &3589850089981080898 stripped
Transform:
  m_CorrespondingSourceObject: {fileID: -8679921383154817045, guid: 5273e8dca2416ea43bf2ae1834a34365,
    type: 3}
  m_PrefabInstance: {fileID: 3916738450371678889}
  m_PrefabAsset: {fileID: 0}
--- !u!1001 &4046582558754925485
PrefabInstance:
  m_ObjectHideFlags: 0
  serializedVersion: 2
  m_Modification:
    m_TransformParent: {fileID: 4544201243047636}
    m_Modifications:
    - target: {fileID: 100000, guid: 7d6ab47cde74a4546a1d05d8d79c351c, type: 3}
      propertyPath: m_Name
      value: Fern-02
      objectReference: {fileID: 0}
    - target: {fileID: 100000, guid: 7d6ab47cde74a4546a1d05d8d79c351c, type: 3}
      propertyPath: m_StaticEditorFlags
      value: 4
      objectReference: {fileID: 0}
    - target: {fileID: 400000, guid: 7d6ab47cde74a4546a1d05d8d79c351c, type: 3}
      propertyPath: m_RootOrder
      value: 8
      objectReference: {fileID: 0}
    - target: {fileID: 400000, guid: 7d6ab47cde74a4546a1d05d8d79c351c, type: 3}
      propertyPath: m_LocalPosition.x
      value: 16.65296
      objectReference: {fileID: 0}
    - target: {fileID: 400000, guid: 7d6ab47cde74a4546a1d05d8d79c351c, type: 3}
      propertyPath: m_LocalPosition.y
      value: 0.40934017
      objectReference: {fileID: 0}
    - target: {fileID: 400000, guid: 7d6ab47cde74a4546a1d05d8d79c351c, type: 3}
      propertyPath: m_LocalPosition.z
      value: -9.650088
      objectReference: {fileID: 0}
    - target: {fileID: 400000, guid: 7d6ab47cde74a4546a1d05d8d79c351c, type: 3}
      propertyPath: m_LocalRotation.w
      value: 1
      objectReference: {fileID: 0}
    - target: {fileID: 400000, guid: 7d6ab47cde74a4546a1d05d8d79c351c, type: 3}
      propertyPath: m_LocalRotation.x
      value: -0
      objectReference: {fileID: 0}
    - target: {fileID: 400000, guid: 7d6ab47cde74a4546a1d05d8d79c351c, type: 3}
      propertyPath: m_LocalRotation.y
      value: -0
      objectReference: {fileID: 0}
    - target: {fileID: 400000, guid: 7d6ab47cde74a4546a1d05d8d79c351c, type: 3}
      propertyPath: m_LocalRotation.z
      value: -0
      objectReference: {fileID: 0}
    - target: {fileID: 400000, guid: 7d6ab47cde74a4546a1d05d8d79c351c, type: 3}
      propertyPath: m_LocalEulerAnglesHint.x
      value: 0
      objectReference: {fileID: 0}
    - target: {fileID: 400000, guid: 7d6ab47cde74a4546a1d05d8d79c351c, type: 3}
      propertyPath: m_LocalEulerAnglesHint.y
      value: 0
      objectReference: {fileID: 0}
    - target: {fileID: 400000, guid: 7d6ab47cde74a4546a1d05d8d79c351c, type: 3}
      propertyPath: m_LocalEulerAnglesHint.z
      value: 0
      objectReference: {fileID: 0}
    m_RemovedComponents: []
  m_SourcePrefab: {fileID: 100100000, guid: 7d6ab47cde74a4546a1d05d8d79c351c, type: 3}
--- !u!4 &4046582558755320109 stripped
Transform:
  m_CorrespondingSourceObject: {fileID: 400000, guid: 7d6ab47cde74a4546a1d05d8d79c351c,
    type: 3}
  m_PrefabInstance: {fileID: 4046582558754925485}
  m_PrefabAsset: {fileID: 0}
--- !u!1001 &6539356604438034719
PrefabInstance:
  m_ObjectHideFlags: 0
  serializedVersion: 2
  m_Modification:
    m_TransformParent: {fileID: 4544201243047636}
    m_Modifications:
    - target: {fileID: -8679921383154817045, guid: 2b420d663273cec4b852e7d4b77baa31,
        type: 3}
      propertyPath: m_RootOrder
      value: 12
      objectReference: {fileID: 0}
    - target: {fileID: -8679921383154817045, guid: 2b420d663273cec4b852e7d4b77baa31,
        type: 3}
      propertyPath: m_LocalPosition.x
      value: -12.98
      objectReference: {fileID: 0}
    - target: {fileID: -8679921383154817045, guid: 2b420d663273cec4b852e7d4b77baa31,
        type: 3}
      propertyPath: m_LocalPosition.y
      value: 0.486
      objectReference: {fileID: 0}
    - target: {fileID: -8679921383154817045, guid: 2b420d663273cec4b852e7d4b77baa31,
        type: 3}
      propertyPath: m_LocalPosition.z
      value: -0.6717606
      objectReference: {fileID: 0}
    - target: {fileID: -8679921383154817045, guid: 2b420d663273cec4b852e7d4b77baa31,
        type: 3}
      propertyPath: m_LocalRotation.w
      value: 0.1847233
      objectReference: {fileID: 0}
    - target: {fileID: -8679921383154817045, guid: 2b420d663273cec4b852e7d4b77baa31,
        type: 3}
      propertyPath: m_LocalRotation.x
      value: 0
      objectReference: {fileID: 0}
    - target: {fileID: -8679921383154817045, guid: 2b420d663273cec4b852e7d4b77baa31,
        type: 3}
      propertyPath: m_LocalRotation.y
      value: 0.98279065
      objectReference: {fileID: 0}
    - target: {fileID: -8679921383154817045, guid: 2b420d663273cec4b852e7d4b77baa31,
        type: 3}
      propertyPath: m_LocalRotation.z
      value: 0
      objectReference: {fileID: 0}
    - target: {fileID: -8679921383154817045, guid: 2b420d663273cec4b852e7d4b77baa31,
        type: 3}
      propertyPath: m_LocalEulerAnglesHint.x
      value: 0
      objectReference: {fileID: 0}
    - target: {fileID: -8679921383154817045, guid: 2b420d663273cec4b852e7d4b77baa31,
        type: 3}
      propertyPath: m_LocalEulerAnglesHint.y
      value: 158.71
      objectReference: {fileID: 0}
    - target: {fileID: -8679921383154817045, guid: 2b420d663273cec4b852e7d4b77baa31,
        type: 3}
      propertyPath: m_LocalEulerAnglesHint.z
      value: 0
      objectReference: {fileID: 0}
    - target: {fileID: 919132149155446097, guid: 2b420d663273cec4b852e7d4b77baa31,
        type: 3}
      propertyPath: m_Name
      value: Vegetation-05 (2)
      objectReference: {fileID: 0}
    - target: {fileID: 919132149155446097, guid: 2b420d663273cec4b852e7d4b77baa31,
        type: 3}
      propertyPath: m_StaticEditorFlags
      value: 4
      objectReference: {fileID: 0}
    m_RemovedComponents: []
  m_SourcePrefab: {fileID: 100100000, guid: 2b420d663273cec4b852e7d4b77baa31, type: 3}
--- !u!4 &6722413345797791476 stripped
Transform:
  m_CorrespondingSourceObject: {fileID: -8679921383154817045, guid: 2b420d663273cec4b852e7d4b77baa31,
    type: 3}
  m_PrefabInstance: {fileID: 6539356604438034719}
  m_PrefabAsset: {fileID: 0}
--- !u!1001 &7825506861005865982
PrefabInstance:
  m_ObjectHideFlags: 0
  serializedVersion: 2
  m_Modification:
    m_TransformParent: {fileID: 4544201243047636}
    m_Modifications:
    - target: {fileID: -8679921383154817045, guid: 2b420d663273cec4b852e7d4b77baa31,
        type: 3}
      propertyPath: m_RootOrder
      value: 11
      objectReference: {fileID: 0}
    - target: {fileID: -8679921383154817045, guid: 2b420d663273cec4b852e7d4b77baa31,
        type: 3}
      propertyPath: m_LocalPosition.x
      value: -3.78
      objectReference: {fileID: 0}
    - target: {fileID: -8679921383154817045, guid: 2b420d663273cec4b852e7d4b77baa31,
        type: 3}
      propertyPath: m_LocalPosition.y
      value: 0.486
      objectReference: {fileID: 0}
    - target: {fileID: -8679921383154817045, guid: 2b420d663273cec4b852e7d4b77baa31,
        type: 3}
      propertyPath: m_LocalPosition.z
      value: -0.6717606
      objectReference: {fileID: 0}
    - target: {fileID: -8679921383154817045, guid: 2b420d663273cec4b852e7d4b77baa31,
        type: 3}
      propertyPath: m_LocalRotation.w
      value: 0.87406915
      objectReference: {fileID: 0}
    - target: {fileID: -8679921383154817045, guid: 2b420d663273cec4b852e7d4b77baa31,
        type: 3}
      propertyPath: m_LocalRotation.x
      value: 0
      objectReference: {fileID: 0}
    - target: {fileID: -8679921383154817045, guid: 2b420d663273cec4b852e7d4b77baa31,
        type: 3}
      propertyPath: m_LocalRotation.y
      value: 0.4858015
      objectReference: {fileID: 0}
    - target: {fileID: -8679921383154817045, guid: 2b420d663273cec4b852e7d4b77baa31,
        type: 3}
      propertyPath: m_LocalRotation.z
      value: 0
      objectReference: {fileID: 0}
    - target: {fileID: -8679921383154817045, guid: 2b420d663273cec4b852e7d4b77baa31,
        type: 3}
      propertyPath: m_LocalEulerAnglesHint.x
      value: 0
      objectReference: {fileID: 0}
    - target: {fileID: -8679921383154817045, guid: 2b420d663273cec4b852e7d4b77baa31,
        type: 3}
      propertyPath: m_LocalEulerAnglesHint.y
      value: 58.13
      objectReference: {fileID: 0}
    - target: {fileID: -8679921383154817045, guid: 2b420d663273cec4b852e7d4b77baa31,
        type: 3}
      propertyPath: m_LocalEulerAnglesHint.z
      value: 0
      objectReference: {fileID: 0}
    - target: {fileID: 919132149155446097, guid: 2b420d663273cec4b852e7d4b77baa31,
        type: 3}
      propertyPath: m_Name
      value: Vegetation-05 (1)
      objectReference: {fileID: 0}
    - target: {fileID: 919132149155446097, guid: 2b420d663273cec4b852e7d4b77baa31,
        type: 3}
      propertyPath: m_StaticEditorFlags
      value: 4
      objectReference: {fileID: 0}
    m_RemovedComponents: []
  m_SourcePrefab: {fileID: 100100000, guid: 2b420d663273cec4b852e7d4b77baa31, type: 3}
--- !u!4 &7715634256493306901 stripped
Transform:
  m_CorrespondingSourceObject: {fileID: -8679921383154817045, guid: 2b420d663273cec4b852e7d4b77baa31,
    type: 3}
  m_PrefabInstance: {fileID: 7825506861005865982}
  m_PrefabAsset: {fileID: 0}
