%YAML 1.1
%TAG !u! tag:unity3d.com,2011:
--- !u!1 &1314192667320178
GameObject:
  m_ObjectHideFlags: 0
  m_CorrespondingSourceObject: {fileID: 0}
  m_PrefabInstance: {fileID: 0}
  m_PrefabAsset: {fileID: 0}
  serializedVersion: 6
  m_Component:
  - component: {fileID: 4247834815922730}
  - component: {fileID: 33955260510913756}
  - component: {fileID: 23320602686281458}
  m_Layer: 0
  m_Name: BB-028
  m_TagString: Untagged
  m_Icon: {fileID: 0}
  m_NavMeshLayer: 0
  m_StaticEditorFlags: 4
  m_IsActive: 1
--- !u!4 &4247834815922730
Transform:
  m_ObjectHideFlags: 0
  m_CorrespondingSourceObject: {fileID: 0}
  m_PrefabInstance: {fileID: 0}
  m_PrefabAsset: {fileID: 0}
  m_GameObject: {fileID: 1314192667320178}
  m_LocalRotation: {x: 0, y: -0, z: -0, w: 1}
  m_LocalPosition: {x: -0, y: 0, z: 0}
  m_LocalScale: {x: 1, y: 1, z: 1}
  m_Children:
  - {fileID: 4769984493877468}
  - {fileID: 8924842760205546310}
  m_Father: {fileID: 0}
  m_RootOrder: 0
  m_LocalEulerAnglesHint: {x: 0, y: 0, z: 0}
--- !u!33 &33955260510913756
MeshFilter:
  m_ObjectHideFlags: 0
  m_CorrespondingSourceObject: {fileID: 0}
  m_PrefabInstance: {fileID: 0}
  m_PrefabAsset: {fileID: 0}
  m_GameObject: {fileID: 1314192667320178}
  m_Mesh: {fileID: 4300000, guid: c9f720f1f875e5f459d711d89834cd30, type: 3}
--- !u!23 &23320602686281458
MeshRenderer:
  m_ObjectHideFlags: 0
  m_CorrespondingSourceObject: {fileID: 0}
  m_PrefabInstance: {fileID: 0}
  m_PrefabAsset: {fileID: 0}
  m_GameObject: {fileID: 1314192667320178}
  m_Enabled: 1
  m_CastShadows: 1
  m_ReceiveShadows: 1
  m_DynamicOccludee: 1
  m_MotionVectors: 1
  m_LightProbeUsage: 1
  m_ReflectionProbeUsage: 1
  m_RayTracingMode: 2
  m_RenderingLayerMask: 1
  m_RendererPriority: 0
  m_Materials:
  - {fileID: 2100000, guid: 59aa769bd1562c543b982eedfb107b96, type: 2}
  - {fileID: 2100000, guid: 35bf375a0cec2a34e88b5c18a3cd7b5a, type: 2}
  - {fileID: 2100000, guid: 1783dae8770f9d244920a527ac4d1046, type: 2}
  - {fileID: 2100000, guid: cb940e2093c5e184bb0961b0c91a798b, type: 2}
  m_StaticBatchInfo:
    firstSubMesh: 0
    subMeshCount: 0
  m_StaticBatchRoot: {fileID: 0}
  m_ProbeAnchor: {fileID: 0}
  m_LightProbeVolumeOverride: {fileID: 0}
  m_ScaleInLightmap: 1
  m_ReceiveGI: 1
  m_PreserveUVs: 0
  m_IgnoreNormalsForChartDetection: 0
  m_ImportantGI: 0
  m_StitchLightmapSeams: 0
  m_SelectedEditorRenderState: 3
  m_MinimumChartSize: 4
  m_AutoUVMaxDistance: 0.5
  m_AutoUVMaxAngle: 89
  m_LightmapParameters: {fileID: 0}
  m_SortingLayerID: 0
  m_SortingLayer: 0
  m_SortingOrder: 0
--- !u!1 &1667909652231668
GameObject:
  m_ObjectHideFlags: 0
  m_CorrespondingSourceObject: {fileID: 0}
  m_PrefabInstance: {fileID: 0}
  m_PrefabAsset: {fileID: 0}
  serializedVersion: 6
  m_Component:
  - component: {fileID: 4769984493877468}
  - component: {fileID: 33641218369004624}
  - component: {fileID: 64493090182870532}
  m_Layer: 0
  m_Name: BB-028-Collider
  m_TagString: Untagged
  m_Icon: {fileID: 0}
  m_NavMeshLayer: 0
  m_StaticEditorFlags: 4
  m_IsActive: 1
--- !u!4 &4769984493877468
Transform:
  m_ObjectHideFlags: 0
  m_CorrespondingSourceObject: {fileID: 0}
  m_PrefabInstance: {fileID: 0}
  m_PrefabAsset: {fileID: 0}
  m_GameObject: {fileID: 1667909652231668}
  m_LocalRotation: {x: 0, y: -0, z: -0, w: 1}
  m_LocalPosition: {x: -0, y: 0, z: 0}
  m_LocalScale: {x: 1, y: 1, z: 1}
  m_Children: []
  m_Father: {fileID: 4247834815922730}
  m_RootOrder: 0
  m_LocalEulerAnglesHint: {x: 0, y: 0, z: 0}
--- !u!33 &33641218369004624
MeshFilter:
  m_ObjectHideFlags: 0
  m_CorrespondingSourceObject: {fileID: 0}
  m_PrefabInstance: {fileID: 0}
  m_PrefabAsset: {fileID: 0}
  m_GameObject: {fileID: 1667909652231668}
  m_Mesh: {fileID: 4300002, guid: c9f720f1f875e5f459d711d89834cd30, type: 3}
--- !u!64 &64493090182870532
MeshCollider:
  m_ObjectHideFlags: 0
  m_CorrespondingSourceObject: {fileID: 0}
  m_PrefabInstance: {fileID: 0}
  m_PrefabAsset: {fileID: 0}
  m_GameObject: {fileID: 1667909652231668}
  m_Material: {fileID: 0}
  m_IsTrigger: 0
  m_Enabled: 1
  serializedVersion: 4
  m_Convex: 0
  m_CookingOptions: 30
  m_Mesh: {fileID: 4300002, guid: c9f720f1f875e5f459d711d89834cd30, type: 3}
--- !u!1001 &8924842760205412812
PrefabInstance:
  m_ObjectHideFlags: 0
  serializedVersion: 2
  m_Modification:
    m_TransformParent: {fileID: 4247834815922730}
    m_Modifications:
    - target: {fileID: 100010, guid: e4aafaf7056bfc14d88ac105dee3c9fa, type: 3}
      propertyPath: m_Name
      value: Truck-01
      objectReference: {fileID: 0}
    - target: {fileID: 400010, guid: e4aafaf7056bfc14d88ac105dee3c9fa, type: 3}
      propertyPath: m_RootOrder
      value: 1
      objectReference: {fileID: 0}
    - target: {fileID: 400010, guid: e4aafaf7056bfc14d88ac105dee3c9fa, type: 3}
      propertyPath: m_LocalPosition.x
      value: 12.13294
      objectReference: {fileID: 0}
    - target: {fileID: 400010, guid: e4aafaf7056bfc14d88ac105dee3c9fa, type: 3}
      propertyPath: m_LocalPosition.y
      value: 0.565
      objectReference: {fileID: 0}
    - target: {fileID: 400010, guid: e4aafaf7056bfc14d88ac105dee3c9fa, type: 3}
      propertyPath: m_LocalPosition.z
      value: -8.96
      objectReference: {fileID: 0}
    - target: {fileID: 400010, guid: e4aafaf7056bfc14d88ac105dee3c9fa, type: 3}
      propertyPath: m_LocalRotation.w
      value: 1
      objectReference: {fileID: 0}
    - target: {fileID: 400010, guid: e4aafaf7056bfc14d88ac105dee3c9fa, type: 3}
      propertyPath: m_LocalRotation.x
      value: -0
      objectReference: {fileID: 0}
    - target: {fileID: 400010, guid: e4aafaf7056bfc14d88ac105dee3c9fa, type: 3}
      propertyPath: m_LocalRotation.y
      value: 0
      objectReference: {fileID: 0}
    - target: {fileID: 400010, guid: e4aafaf7056bfc14d88ac105dee3c9fa, type: 3}
      propertyPath: m_LocalRotation.z
      value: -0
      objectReference: {fileID: 0}
    - target: {fileID: 400010, guid: e4aafaf7056bfc14d88ac105dee3c9fa, type: 3}
      propertyPath: m_LocalEulerAnglesHint.x
      value: 0
      objectReference: {fileID: 0}
    - target: {fileID: 400010, guid: e4aafaf7056bfc14d88ac105dee3c9fa, type: 3}
      propertyPath: m_LocalEulerAnglesHint.y
      value: 0
      objectReference: {fileID: 0}
    - target: {fileID: 400010, guid: e4aafaf7056bfc14d88ac105dee3c9fa, type: 3}
      propertyPath: m_LocalEulerAnglesHint.z
      value: 0
      objectReference: {fileID: 0}
    - target: {fileID: 2300018, guid: e4aafaf7056bfc14d88ac105dee3c9fa, type: 3}
      propertyPath: m_Materials.Array.data[0]
      value: 
      objectReference: {fileID: 2100000, guid: 557ab425f9d55354f9333b56f7954167, type: 2}
    m_RemovedComponents: []
  m_SourcePrefab: {fileID: 100100000, guid: e4aafaf7056bfc14d88ac105dee3c9fa, type: 3}
--- !u!4 &8924842760205546310 stripped
Transform:
  m_CorrespondingSourceObject: {fileID: 400010, guid: e4aafaf7056bfc14d88ac105dee3c9fa,
    type: 3}
  m_PrefabInstance: {fileID: 8924842760205412812}
  m_PrefabAsset: {fileID: 0}
